<?xml version="1.0" encoding="utf-8" standalone="no"?>
<!DOCTYPE svg PUBLIC "-//W3C//DTD SVG 1.1//EN"
  "http://www.w3.org/Graphics/SVG/1.1/DTD/svg11.dtd">
<svg height="522.805pt" version="1.1" viewBox="0 0 628.20625 522.805" width="628.20625pt" xmlns="http://www.w3.org/2000/svg" xmlns:xlink="http://www.w3.org/1999/xlink">
 <metadata>
  <rdf:RDF xmlns:cc="http://creativecommons.org/ns#" xmlns:dc="http://purl.org/dc/elements/1.1/" xmlns:rdf="http://www.w3.org/1999/02/22-rdf-syntax-ns#">
   <cc:Work>
    <dc:type rdf:resource="http://purl.org/dc/dcmitype/StillImage"/>
    <dc:date>2022-06-21T17:20:46.960286</dc:date>
    <dc:format>image/svg+xml</dc:format>
    <dc:creator>
     <cc:Agent>
      <dc:title>Matplotlib v3.4.2, https://matplotlib.org/</dc:title>
     </cc:Agent>
    </dc:creator>
   </cc:Work>
  </rdf:RDF>
 </metadata>
 <defs>
  <style type="text/css">*{stroke-linecap:butt;stroke-linejoin:round;}</style>
 </defs>
 <g id="figure_1">
  <g id="patch_1">
   <path d="M -0 522.805 
L 628.20625 522.805 
L 628.20625 0 
L -0 0 
z
" style="fill:none;"/>
  </g>
  <g id="axes_1">
   <g id="patch_2">
    <path d="M 63.00625 465.8925 
L 621.00625 465.8925 
L 621.00625 31.0125 
L 63.00625 31.0125 
z
" style="fill:#ffffff;"/>
   </g>
   <g id="matplotlib.axis_1">
    <g id="xtick_1">
     <g id="line2d_1">
      <defs>
       <path d="M 0 0 
L 0 3.5 
" id="m8dd1d5819c" style="stroke:#000000;stroke-width:0.8;"/>
      </defs>
      <g>
       <use style="stroke:#000000;stroke-width:0.8;" x="75.473669" xlink:href="#m8dd1d5819c" y="465.8925"/>
      </g>
     </g>
     <g id="text_1">
      <!-- 9 -->
      <g transform="translate(69.111169 488.089375)scale(0.2 -0.2)">
       <defs>
        <path d="M 703 97 
L 703 672 
Q 941 559 1184 500 
Q 1428 441 1663 441 
Q 2288 441 2617 861 
Q 2947 1281 2994 2138 
Q 2813 1869 2534 1725 
Q 2256 1581 1919 1581 
Q 1219 1581 811 2004 
Q 403 2428 403 3163 
Q 403 3881 828 4315 
Q 1253 4750 1959 4750 
Q 2769 4750 3195 4129 
Q 3622 3509 3622 2328 
Q 3622 1225 3098 567 
Q 2575 -91 1691 -91 
Q 1453 -91 1209 -44 
Q 966 3 703 97 
z
M 1959 2075 
Q 2384 2075 2632 2365 
Q 2881 2656 2881 3163 
Q 2881 3666 2632 3958 
Q 2384 4250 1959 4250 
Q 1534 4250 1286 3958 
Q 1038 3666 1038 3163 
Q 1038 2656 1286 2365 
Q 1534 2075 1959 2075 
z
" id="DejaVuSans-39" transform="scale(0.015625)"/>
       </defs>
       <use xlink:href="#DejaVuSans-39"/>
      </g>
     </g>
    </g>
    <g id="xtick_2">
     <g id="line2d_2">
      <g>
       <use style="stroke:#000000;stroke-width:0.8;" x="139.954758" xlink:href="#m8dd1d5819c" y="465.8925"/>
      </g>
     </g>
     <g id="text_2">
      <!-- 10 -->
      <g transform="translate(127.229758 488.089375)scale(0.2 -0.2)">
       <defs>
        <path d="M 794 531 
L 1825 531 
L 1825 4091 
L 703 3866 
L 703 4441 
L 1819 4666 
L 2450 4666 
L 2450 531 
L 3481 531 
L 3481 0 
L 794 0 
L 794 531 
z
" id="DejaVuSans-31" transform="scale(0.015625)"/>
        <path d="M 2034 4250 
Q 1547 4250 1301 3770 
Q 1056 3291 1056 2328 
Q 1056 1369 1301 889 
Q 1547 409 2034 409 
Q 2525 409 2770 889 
Q 3016 1369 3016 2328 
Q 3016 3291 2770 3770 
Q 2525 4250 2034 4250 
z
M 2034 4750 
Q 2819 4750 3233 4129 
Q 3647 3509 3647 2328 
Q 3647 1150 3233 529 
Q 2819 -91 2034 -91 
Q 1250 -91 836 529 
Q 422 1150 422 2328 
Q 422 3509 836 4129 
Q 1250 4750 2034 4750 
z
" id="DejaVuSans-30" transform="scale(0.015625)"/>
       </defs>
       <use xlink:href="#DejaVuSans-31"/>
       <use x="63.623047" xlink:href="#DejaVuSans-30"/>
      </g>
     </g>
    </g>
    <g id="xtick_3">
     <g id="line2d_3">
      <g>
       <use style="stroke:#000000;stroke-width:0.8;" x="204.435847" xlink:href="#m8dd1d5819c" y="465.8925"/>
      </g>
     </g>
     <g id="text_3">
      <!-- 11 -->
      <g transform="translate(191.710847 488.089375)scale(0.2 -0.2)">
       <use xlink:href="#DejaVuSans-31"/>
       <use x="63.623047" xlink:href="#DejaVuSans-31"/>
      </g>
     </g>
    </g>
    <g id="xtick_4">
     <g id="line2d_4">
      <g>
       <use style="stroke:#000000;stroke-width:0.8;" x="268.916936" xlink:href="#m8dd1d5819c" y="465.8925"/>
      </g>
     </g>
     <g id="text_4">
      <!-- 12 -->
      <g transform="translate(256.191936 488.089375)scale(0.2 -0.2)">
       <defs>
        <path d="M 1228 531 
L 3431 531 
L 3431 0 
L 469 0 
L 469 531 
Q 828 903 1448 1529 
Q 2069 2156 2228 2338 
Q 2531 2678 2651 2914 
Q 2772 3150 2772 3378 
Q 2772 3750 2511 3984 
Q 2250 4219 1831 4219 
Q 1534 4219 1204 4116 
Q 875 4013 500 3803 
L 500 4441 
Q 881 4594 1212 4672 
Q 1544 4750 1819 4750 
Q 2544 4750 2975 4387 
Q 3406 4025 3406 3419 
Q 3406 3131 3298 2873 
Q 3191 2616 2906 2266 
Q 2828 2175 2409 1742 
Q 1991 1309 1228 531 
z
" id="DejaVuSans-32" transform="scale(0.015625)"/>
       </defs>
       <use xlink:href="#DejaVuSans-31"/>
       <use x="63.623047" xlink:href="#DejaVuSans-32"/>
      </g>
     </g>
    </g>
    <g id="xtick_5">
     <g id="line2d_5">
      <g>
       <use style="stroke:#000000;stroke-width:0.8;" x="333.398025" xlink:href="#m8dd1d5819c" y="465.8925"/>
      </g>
     </g>
     <g id="text_5">
      <!-- 13 -->
      <g transform="translate(320.673025 488.089375)scale(0.2 -0.2)">
       <defs>
        <path d="M 2597 2516 
Q 3050 2419 3304 2112 
Q 3559 1806 3559 1356 
Q 3559 666 3084 287 
Q 2609 -91 1734 -91 
Q 1441 -91 1130 -33 
Q 819 25 488 141 
L 488 750 
Q 750 597 1062 519 
Q 1375 441 1716 441 
Q 2309 441 2620 675 
Q 2931 909 2931 1356 
Q 2931 1769 2642 2001 
Q 2353 2234 1838 2234 
L 1294 2234 
L 1294 2753 
L 1863 2753 
Q 2328 2753 2575 2939 
Q 2822 3125 2822 3475 
Q 2822 3834 2567 4026 
Q 2313 4219 1838 4219 
Q 1578 4219 1281 4162 
Q 984 4106 628 3988 
L 628 4550 
Q 988 4650 1302 4700 
Q 1616 4750 1894 4750 
Q 2613 4750 3031 4423 
Q 3450 4097 3450 3541 
Q 3450 3153 3228 2886 
Q 3006 2619 2597 2516 
z
" id="DejaVuSans-33" transform="scale(0.015625)"/>
       </defs>
       <use xlink:href="#DejaVuSans-31"/>
       <use x="63.623047" xlink:href="#DejaVuSans-33"/>
      </g>
     </g>
    </g>
    <g id="xtick_6">
     <g id="line2d_6">
      <g>
       <use style="stroke:#000000;stroke-width:0.8;" x="397.879114" xlink:href="#m8dd1d5819c" y="465.8925"/>
      </g>
     </g>
     <g id="text_6">
      <!-- 14 -->
      <g transform="translate(385.154114 488.089375)scale(0.2 -0.2)">
       <defs>
        <path d="M 2419 4116 
L 825 1625 
L 2419 1625 
L 2419 4116 
z
M 2253 4666 
L 3047 4666 
L 3047 1625 
L 3713 1625 
L 3713 1100 
L 3047 1100 
L 3047 0 
L 2419 0 
L 2419 1100 
L 313 1100 
L 313 1709 
L 2253 4666 
z
" id="DejaVuSans-34" transform="scale(0.015625)"/>
       </defs>
       <use xlink:href="#DejaVuSans-31"/>
       <use x="63.623047" xlink:href="#DejaVuSans-34"/>
      </g>
     </g>
    </g>
    <g id="xtick_7">
     <g id="line2d_7">
      <g>
       <use style="stroke:#000000;stroke-width:0.8;" x="462.360203" xlink:href="#m8dd1d5819c" y="465.8925"/>
      </g>
     </g>
     <g id="text_7">
      <!-- 15 -->
      <g transform="translate(449.635203 488.089375)scale(0.2 -0.2)">
       <defs>
        <path d="M 691 4666 
L 3169 4666 
L 3169 4134 
L 1269 4134 
L 1269 2991 
Q 1406 3038 1543 3061 
Q 1681 3084 1819 3084 
Q 2600 3084 3056 2656 
Q 3513 2228 3513 1497 
Q 3513 744 3044 326 
Q 2575 -91 1722 -91 
Q 1428 -91 1123 -41 
Q 819 9 494 109 
L 494 744 
Q 775 591 1075 516 
Q 1375 441 1709 441 
Q 2250 441 2565 725 
Q 2881 1009 2881 1497 
Q 2881 1984 2565 2268 
Q 2250 2553 1709 2553 
Q 1456 2553 1204 2497 
Q 953 2441 691 2322 
L 691 4666 
z
" id="DejaVuSans-35" transform="scale(0.015625)"/>
       </defs>
       <use xlink:href="#DejaVuSans-31"/>
       <use x="63.623047" xlink:href="#DejaVuSans-35"/>
      </g>
     </g>
    </g>
    <g id="xtick_8">
     <g id="line2d_8">
      <g>
       <use style="stroke:#000000;stroke-width:0.8;" x="526.841292" xlink:href="#m8dd1d5819c" y="465.8925"/>
      </g>
     </g>
     <g id="text_8">
      <!-- 16 -->
      <g transform="translate(514.116292 488.089375)scale(0.2 -0.2)">
       <defs>
        <path d="M 2113 2584 
Q 1688 2584 1439 2293 
Q 1191 2003 1191 1497 
Q 1191 994 1439 701 
Q 1688 409 2113 409 
Q 2538 409 2786 701 
Q 3034 994 3034 1497 
Q 3034 2003 2786 2293 
Q 2538 2584 2113 2584 
z
M 3366 4563 
L 3366 3988 
Q 3128 4100 2886 4159 
Q 2644 4219 2406 4219 
Q 1781 4219 1451 3797 
Q 1122 3375 1075 2522 
Q 1259 2794 1537 2939 
Q 1816 3084 2150 3084 
Q 2853 3084 3261 2657 
Q 3669 2231 3669 1497 
Q 3669 778 3244 343 
Q 2819 -91 2113 -91 
Q 1303 -91 875 529 
Q 447 1150 447 2328 
Q 447 3434 972 4092 
Q 1497 4750 2381 4750 
Q 2619 4750 2861 4703 
Q 3103 4656 3366 4563 
z
" id="DejaVuSans-36" transform="scale(0.015625)"/>
       </defs>
       <use xlink:href="#DejaVuSans-31"/>
       <use x="63.623047" xlink:href="#DejaVuSans-36"/>
      </g>
     </g>
    </g>
    <g id="xtick_9">
     <g id="line2d_9">
      <g>
       <use style="stroke:#000000;stroke-width:0.8;" x="591.322381" xlink:href="#m8dd1d5819c" y="465.8925"/>
      </g>
     </g>
     <g id="text_9">
      <!-- 17 -->
      <g transform="translate(578.597381 488.089375)scale(0.2 -0.2)">
       <defs>
        <path d="M 525 4666 
L 3525 4666 
L 3525 4397 
L 1831 0 
L 1172 0 
L 2766 4134 
L 525 4134 
L 525 4666 
z
" id="DejaVuSans-37" transform="scale(0.015625)"/>
       </defs>
       <use xlink:href="#DejaVuSans-31"/>
       <use x="63.623047" xlink:href="#DejaVuSans-37"/>
      </g>
     </g>
    </g>
    <g id="text_10">
     <!-- Brix Observed -->
     <g transform="translate(271.045313 511.445625)scale(0.2 -0.2)">
      <defs>
       <path d="M 1259 2228 
L 1259 519 
L 2272 519 
Q 2781 519 3026 730 
Q 3272 941 3272 1375 
Q 3272 1813 3026 2020 
Q 2781 2228 2272 2228 
L 1259 2228 
z
M 1259 4147 
L 1259 2741 
L 2194 2741 
Q 2656 2741 2882 2914 
Q 3109 3088 3109 3444 
Q 3109 3797 2882 3972 
Q 2656 4147 2194 4147 
L 1259 4147 
z
M 628 4666 
L 2241 4666 
Q 2963 4666 3353 4366 
Q 3744 4066 3744 3513 
Q 3744 3084 3544 2831 
Q 3344 2578 2956 2516 
Q 3422 2416 3680 2098 
Q 3938 1781 3938 1306 
Q 3938 681 3513 340 
Q 3088 0 2303 0 
L 628 0 
L 628 4666 
z
" id="DejaVuSans-42" transform="scale(0.015625)"/>
       <path d="M 2631 2963 
Q 2534 3019 2420 3045 
Q 2306 3072 2169 3072 
Q 1681 3072 1420 2755 
Q 1159 2438 1159 1844 
L 1159 0 
L 581 0 
L 581 3500 
L 1159 3500 
L 1159 2956 
Q 1341 3275 1631 3429 
Q 1922 3584 2338 3584 
Q 2397 3584 2469 3576 
Q 2541 3569 2628 3553 
L 2631 2963 
z
" id="DejaVuSans-72" transform="scale(0.015625)"/>
       <path d="M 603 3500 
L 1178 3500 
L 1178 0 
L 603 0 
L 603 3500 
z
M 603 4863 
L 1178 4863 
L 1178 4134 
L 603 4134 
L 603 4863 
z
" id="DejaVuSans-69" transform="scale(0.015625)"/>
       <path d="M 3513 3500 
L 2247 1797 
L 3578 0 
L 2900 0 
L 1881 1375 
L 863 0 
L 184 0 
L 1544 1831 
L 300 3500 
L 978 3500 
L 1906 2253 
L 2834 3500 
L 3513 3500 
z
" id="DejaVuSans-78" transform="scale(0.015625)"/>
       <path id="DejaVuSans-20" transform="scale(0.015625)"/>
       <path d="M 2522 4238 
Q 1834 4238 1429 3725 
Q 1025 3213 1025 2328 
Q 1025 1447 1429 934 
Q 1834 422 2522 422 
Q 3209 422 3611 934 
Q 4013 1447 4013 2328 
Q 4013 3213 3611 3725 
Q 3209 4238 2522 4238 
z
M 2522 4750 
Q 3503 4750 4090 4092 
Q 4678 3434 4678 2328 
Q 4678 1225 4090 567 
Q 3503 -91 2522 -91 
Q 1538 -91 948 565 
Q 359 1222 359 2328 
Q 359 3434 948 4092 
Q 1538 4750 2522 4750 
z
" id="DejaVuSans-4f" transform="scale(0.015625)"/>
       <path d="M 3116 1747 
Q 3116 2381 2855 2742 
Q 2594 3103 2138 3103 
Q 1681 3103 1420 2742 
Q 1159 2381 1159 1747 
Q 1159 1113 1420 752 
Q 1681 391 2138 391 
Q 2594 391 2855 752 
Q 3116 1113 3116 1747 
z
M 1159 2969 
Q 1341 3281 1617 3432 
Q 1894 3584 2278 3584 
Q 2916 3584 3314 3078 
Q 3713 2572 3713 1747 
Q 3713 922 3314 415 
Q 2916 -91 2278 -91 
Q 1894 -91 1617 61 
Q 1341 213 1159 525 
L 1159 0 
L 581 0 
L 581 4863 
L 1159 4863 
L 1159 2969 
z
" id="DejaVuSans-62" transform="scale(0.015625)"/>
       <path d="M 2834 3397 
L 2834 2853 
Q 2591 2978 2328 3040 
Q 2066 3103 1784 3103 
Q 1356 3103 1142 2972 
Q 928 2841 928 2578 
Q 928 2378 1081 2264 
Q 1234 2150 1697 2047 
L 1894 2003 
Q 2506 1872 2764 1633 
Q 3022 1394 3022 966 
Q 3022 478 2636 193 
Q 2250 -91 1575 -91 
Q 1294 -91 989 -36 
Q 684 19 347 128 
L 347 722 
Q 666 556 975 473 
Q 1284 391 1588 391 
Q 1994 391 2212 530 
Q 2431 669 2431 922 
Q 2431 1156 2273 1281 
Q 2116 1406 1581 1522 
L 1381 1569 
Q 847 1681 609 1914 
Q 372 2147 372 2553 
Q 372 3047 722 3315 
Q 1072 3584 1716 3584 
Q 2034 3584 2315 3537 
Q 2597 3491 2834 3397 
z
" id="DejaVuSans-73" transform="scale(0.015625)"/>
       <path d="M 3597 1894 
L 3597 1613 
L 953 1613 
Q 991 1019 1311 708 
Q 1631 397 2203 397 
Q 2534 397 2845 478 
Q 3156 559 3463 722 
L 3463 178 
Q 3153 47 2828 -22 
Q 2503 -91 2169 -91 
Q 1331 -91 842 396 
Q 353 884 353 1716 
Q 353 2575 817 3079 
Q 1281 3584 2069 3584 
Q 2775 3584 3186 3129 
Q 3597 2675 3597 1894 
z
M 3022 2063 
Q 3016 2534 2758 2815 
Q 2500 3097 2075 3097 
Q 1594 3097 1305 2825 
Q 1016 2553 972 2059 
L 3022 2063 
z
" id="DejaVuSans-65" transform="scale(0.015625)"/>
       <path d="M 191 3500 
L 800 3500 
L 1894 563 
L 2988 3500 
L 3597 3500 
L 2284 0 
L 1503 0 
L 191 3500 
z
" id="DejaVuSans-76" transform="scale(0.015625)"/>
       <path d="M 2906 2969 
L 2906 4863 
L 3481 4863 
L 3481 0 
L 2906 0 
L 2906 525 
Q 2725 213 2448 61 
Q 2172 -91 1784 -91 
Q 1150 -91 751 415 
Q 353 922 353 1747 
Q 353 2572 751 3078 
Q 1150 3584 1784 3584 
Q 2172 3584 2448 3432 
Q 2725 3281 2906 2969 
z
M 947 1747 
Q 947 1113 1208 752 
Q 1469 391 1925 391 
Q 2381 391 2643 752 
Q 2906 1113 2906 1747 
Q 2906 2381 2643 2742 
Q 2381 3103 1925 3103 
Q 1469 3103 1208 2742 
Q 947 2381 947 1747 
z
" id="DejaVuSans-64" transform="scale(0.015625)"/>
      </defs>
      <use xlink:href="#DejaVuSans-42"/>
      <use x="68.603516" xlink:href="#DejaVuSans-72"/>
      <use x="109.716797" xlink:href="#DejaVuSans-69"/>
      <use x="137.5" xlink:href="#DejaVuSans-78"/>
      <use x="196.679688" xlink:href="#DejaVuSans-20"/>
      <use x="228.466797" xlink:href="#DejaVuSans-4f"/>
      <use x="307.177734" xlink:href="#DejaVuSans-62"/>
      <use x="370.654297" xlink:href="#DejaVuSans-73"/>
      <use x="422.753906" xlink:href="#DejaVuSans-65"/>
      <use x="484.277344" xlink:href="#DejaVuSans-72"/>
      <use x="525.390625" xlink:href="#DejaVuSans-76"/>
      <use x="584.570312" xlink:href="#DejaVuSans-65"/>
      <use x="646.09375" xlink:href="#DejaVuSans-64"/>
     </g>
    </g>
   </g>
   <g id="matplotlib.axis_2">
    <g id="ytick_1">
     <g id="line2d_10">
      <defs>
       <path d="M 0 0 
L -3.5 0 
" id="m1b70a9f04c" style="stroke:#000000;stroke-width:0.8;"/>
      </defs>
      <g>
       <use style="stroke:#000000;stroke-width:0.8;" x="63.00625" xlink:href="#m1b70a9f04c" y="409.951521"/>
      </g>
     </g>
     <g id="text_11">
      <!-- 10 -->
      <g transform="translate(30.55625 417.549959)scale(0.2 -0.2)">
       <use xlink:href="#DejaVuSans-31"/>
       <use x="63.623047" xlink:href="#DejaVuSans-30"/>
      </g>
     </g>
    </g>
    <g id="ytick_2">
     <g id="line2d_11">
      <g>
       <use style="stroke:#000000;stroke-width:0.8;" x="63.00625" xlink:href="#m1b70a9f04c" y="322.984938"/>
      </g>
     </g>
     <g id="text_12">
      <!-- 12 -->
      <g transform="translate(30.55625 330.583376)scale(0.2 -0.2)">
       <use xlink:href="#DejaVuSans-31"/>
       <use x="63.623047" xlink:href="#DejaVuSans-32"/>
      </g>
     </g>
    </g>
    <g id="ytick_3">
     <g id="line2d_12">
      <g>
       <use style="stroke:#000000;stroke-width:0.8;" x="63.00625" xlink:href="#m1b70a9f04c" y="236.018355"/>
      </g>
     </g>
     <g id="text_13">
      <!-- 14 -->
      <g transform="translate(30.55625 243.616793)scale(0.2 -0.2)">
       <use xlink:href="#DejaVuSans-31"/>
       <use x="63.623047" xlink:href="#DejaVuSans-34"/>
      </g>
     </g>
    </g>
    <g id="ytick_4">
     <g id="line2d_13">
      <g>
       <use style="stroke:#000000;stroke-width:0.8;" x="63.00625" xlink:href="#m1b70a9f04c" y="149.051772"/>
      </g>
     </g>
     <g id="text_14">
      <!-- 16 -->
      <g transform="translate(30.55625 156.65021)scale(0.2 -0.2)">
       <use xlink:href="#DejaVuSans-31"/>
       <use x="63.623047" xlink:href="#DejaVuSans-36"/>
      </g>
     </g>
    </g>
    <g id="ytick_5">
     <g id="line2d_14">
      <g>
       <use style="stroke:#000000;stroke-width:0.8;" x="63.00625" xlink:href="#m1b70a9f04c" y="62.085189"/>
      </g>
     </g>
     <g id="text_15">
      <!-- 18 -->
      <g transform="translate(30.55625 69.683627)scale(0.2 -0.2)">
       <defs>
        <path d="M 2034 2216 
Q 1584 2216 1326 1975 
Q 1069 1734 1069 1313 
Q 1069 891 1326 650 
Q 1584 409 2034 409 
Q 2484 409 2743 651 
Q 3003 894 3003 1313 
Q 3003 1734 2745 1975 
Q 2488 2216 2034 2216 
z
M 1403 2484 
Q 997 2584 770 2862 
Q 544 3141 544 3541 
Q 544 4100 942 4425 
Q 1341 4750 2034 4750 
Q 2731 4750 3128 4425 
Q 3525 4100 3525 3541 
Q 3525 3141 3298 2862 
Q 3072 2584 2669 2484 
Q 3125 2378 3379 2068 
Q 3634 1759 3634 1313 
Q 3634 634 3220 271 
Q 2806 -91 2034 -91 
Q 1263 -91 848 271 
Q 434 634 434 1313 
Q 434 1759 690 2068 
Q 947 2378 1403 2484 
z
M 1172 3481 
Q 1172 3119 1398 2916 
Q 1625 2713 2034 2713 
Q 2441 2713 2670 2916 
Q 2900 3119 2900 3481 
Q 2900 3844 2670 4047 
Q 2441 4250 2034 4250 
Q 1625 4250 1398 4047 
Q 1172 3844 1172 3481 
z
" id="DejaVuSans-38" transform="scale(0.015625)"/>
       </defs>
       <use xlink:href="#DejaVuSans-31"/>
       <use x="63.623047" xlink:href="#DejaVuSans-38"/>
      </g>
     </g>
    </g>
    <g id="text_16">
     <!-- Brix Predicted -->
     <g transform="translate(22.396875 318.24)rotate(-90)scale(0.2 -0.2)">
      <defs>
       <path d="M 1259 4147 
L 1259 2394 
L 2053 2394 
Q 2494 2394 2734 2622 
Q 2975 2850 2975 3272 
Q 2975 3691 2734 3919 
Q 2494 4147 2053 4147 
L 1259 4147 
z
M 628 4666 
L 2053 4666 
Q 2838 4666 3239 4311 
Q 3641 3956 3641 3272 
Q 3641 2581 3239 2228 
Q 2838 1875 2053 1875 
L 1259 1875 
L 1259 0 
L 628 0 
L 628 4666 
z
" id="DejaVuSans-50" transform="scale(0.015625)"/>
       <path d="M 3122 3366 
L 3122 2828 
Q 2878 2963 2633 3030 
Q 2388 3097 2138 3097 
Q 1578 3097 1268 2742 
Q 959 2388 959 1747 
Q 959 1106 1268 751 
Q 1578 397 2138 397 
Q 2388 397 2633 464 
Q 2878 531 3122 666 
L 3122 134 
Q 2881 22 2623 -34 
Q 2366 -91 2075 -91 
Q 1284 -91 818 406 
Q 353 903 353 1747 
Q 353 2603 823 3093 
Q 1294 3584 2113 3584 
Q 2378 3584 2631 3529 
Q 2884 3475 3122 3366 
z
" id="DejaVuSans-63" transform="scale(0.015625)"/>
       <path d="M 1172 4494 
L 1172 3500 
L 2356 3500 
L 2356 3053 
L 1172 3053 
L 1172 1153 
Q 1172 725 1289 603 
Q 1406 481 1766 481 
L 2356 481 
L 2356 0 
L 1766 0 
Q 1100 0 847 248 
Q 594 497 594 1153 
L 594 3053 
L 172 3053 
L 172 3500 
L 594 3500 
L 594 4494 
L 1172 4494 
z
" id="DejaVuSans-74" transform="scale(0.015625)"/>
      </defs>
      <use xlink:href="#DejaVuSans-42"/>
      <use x="68.603516" xlink:href="#DejaVuSans-72"/>
      <use x="109.716797" xlink:href="#DejaVuSans-69"/>
      <use x="137.5" xlink:href="#DejaVuSans-78"/>
      <use x="196.679688" xlink:href="#DejaVuSans-20"/>
      <use x="228.466797" xlink:href="#DejaVuSans-50"/>
      <use x="287.019531" xlink:href="#DejaVuSans-72"/>
      <use x="325.882812" xlink:href="#DejaVuSans-65"/>
      <use x="387.40625" xlink:href="#DejaVuSans-64"/>
      <use x="450.882812" xlink:href="#DejaVuSans-69"/>
      <use x="478.666016" xlink:href="#DejaVuSans-63"/>
      <use x="533.646484" xlink:href="#DejaVuSans-74"/>
      <use x="572.855469" xlink:href="#DejaVuSans-65"/>
      <use x="634.378906" xlink:href="#DejaVuSans-64"/>
     </g>
    </g>
   </g>
   <g id="line2d_15">
    <defs>
     <path d="M 0 5 
C 1.326016 5 2.597899 4.473168 3.535534 3.535534 
C 4.473168 2.597899 5 1.326016 5 0 
C 5 -1.326016 4.473168 -2.597899 3.535534 -3.535534 
C 2.597899 -4.473168 1.326016 -5 0 -5 
C -1.326016 -5 -2.597899 -4.473168 -3.535534 -3.535534 
C -4.473168 -2.597899 -5 -1.326016 -5 0 
C -5 1.326016 -4.473168 2.597899 -3.535534 3.535534 
C -2.597899 4.473168 -1.326016 5 0 5 
z
" id="mcc075c9f7d" style="stroke:#2a9eb3;"/>
    </defs>
    <g clip-path="url(#p52d187ef4a)">
     <use style="fill:#2a9eb3;stroke:#2a9eb3;" x="462.360203" xlink:href="#mcc075c9f7d" y="164.242127"/>
     <use style="fill:#2a9eb3;stroke:#2a9eb3;" x="507.496965" xlink:href="#mcc075c9f7d" y="132.643052"/>
     <use style="fill:#2a9eb3;stroke:#2a9eb3;" x="559.081836" xlink:href="#mcc075c9f7d" y="115.039"/>
     <use style="fill:#2a9eb3;stroke:#2a9eb3;" x="436.567767" xlink:href="#mcc075c9f7d" y="203.654987"/>
     <use style="fill:#2a9eb3;stroke:#2a9eb3;" x="522.521059" xlink:href="#mcc075c9f7d" y="132.00527"/>
     <use style="fill:#2a9eb3;stroke:#2a9eb3;" x="217.332064" xlink:href="#mcc075c9f7d" y="347.8575"/>
     <use style="fill:#2a9eb3;stroke:#2a9eb3;" x="234.548515" xlink:href="#mcc075c9f7d" y="296.721978"/>
     <use style="fill:#2a9eb3;stroke:#2a9eb3;" x="191.539629" xlink:href="#mcc075c9f7d" y="335.193115"/>
     <use style="fill:#2a9eb3;stroke:#2a9eb3;" x="223.780173" xlink:href="#mcc075c9f7d" y="307.499706"/>
     <use style="fill:#2a9eb3;stroke:#2a9eb3;" x="185.09152" xlink:href="#mcc075c9f7d" y="350.161711"/>
     <use style="fill:#2a9eb3;stroke:#2a9eb3;" x="430.119658" xlink:href="#mcc075c9f7d" y="197.310414"/>
     <use style="fill:#2a9eb3;stroke:#2a9eb3;" x="430.119658" xlink:href="#mcc075c9f7d" y="219.939699"/>
     <use style="fill:#2a9eb3;stroke:#2a9eb3;" x="397.879114" xlink:href="#mcc075c9f7d" y="239.745631"/>
     <use style="fill:#2a9eb3;stroke:#2a9eb3;" x="436.567767" xlink:href="#mcc075c9f7d" y="218.331058"/>
     <use style="fill:#2a9eb3;stroke:#2a9eb3;" x="365.638569" xlink:href="#mcc075c9f7d" y="254.393462"/>
     <use style="fill:#2a9eb3;stroke:#2a9eb3;" x="180.771287" xlink:href="#mcc075c9f7d" y="343.294277"/>
     <use style="fill:#2a9eb3;stroke:#2a9eb3;" x="301.15748" xlink:href="#mcc075c9f7d" y="280.363795"/>
     <use style="fill:#2a9eb3;stroke:#2a9eb3;" x="326.949916" xlink:href="#mcc075c9f7d" y="265.670009"/>
     <use style="fill:#2a9eb3;stroke:#2a9eb3;" x="243.1245" xlink:href="#mcc075c9f7d" y="329.523599"/>
     <use style="fill:#2a9eb3;stroke:#2a9eb3;" x="249.572609" xlink:href="#mcc075c9f7d" y="322.624986"/>
     <use style="fill:#2a9eb3;stroke:#2a9eb3;" x="172.195302" xlink:href="#mcc075c9f7d" y="357.062874"/>
     <use style="fill:#2a9eb3;stroke:#2a9eb3;" x="146.402866" xlink:href="#mcc075c9f7d" y="386.698055"/>
     <use style="fill:#2a9eb3;stroke:#2a9eb3;" x="152.850975" xlink:href="#mcc075c9f7d" y="372.721959"/>
     <use style="fill:#2a9eb3;stroke:#2a9eb3;" x="165.747193" xlink:href="#mcc075c9f7d" y="369.234777"/>
     <use style="fill:#2a9eb3;stroke:#2a9eb3;" x="114.162322" xlink:href="#mcc075c9f7d" y="398.730751"/>
     <use style="fill:#2a9eb3;stroke:#2a9eb3;" x="395.751238" xlink:href="#mcc075c9f7d" y="216.933693"/>
     <use style="fill:#2a9eb3;stroke:#2a9eb3;" x="320.501807" xlink:href="#mcc075c9f7d" y="292.998232"/>
     <use style="fill:#2a9eb3;stroke:#2a9eb3;" x="397.879114" xlink:href="#mcc075c9f7d" y="230.004041"/>
     <use style="fill:#2a9eb3;stroke:#2a9eb3;" x="538.125482" xlink:href="#mcc075c9f7d" y="129.517635"/>
     <use style="fill:#2a9eb3;stroke:#2a9eb3;" x="289.87329" xlink:href="#mcc075c9f7d" y="373.692281"/>
     <use style="fill:#2a9eb3;stroke:#2a9eb3;" x="120.610431" xlink:href="#mcc075c9f7d" y="390.243883"/>
     <use style="fill:#2a9eb3;stroke:#2a9eb3;" x="88.369886" xlink:href="#mcc075c9f7d" y="446.125227"/>
     <use style="fill:#2a9eb3;stroke:#2a9eb3;" x="217.332064" xlink:href="#mcc075c9f7d" y="324.73605"/>
     <use style="fill:#2a9eb3;stroke:#2a9eb3;" x="146.402866" xlink:href="#mcc075c9f7d" y="404.632949"/>
     <use style="fill:#2a9eb3;stroke:#2a9eb3;" x="152.850975" xlink:href="#mcc075c9f7d" y="401.777163"/>
     <use style="fill:#2a9eb3;stroke:#2a9eb3;" x="249.572609" xlink:href="#mcc075c9f7d" y="319.042482"/>
     <use style="fill:#2a9eb3;stroke:#2a9eb3;" x="191.539629" xlink:href="#mcc075c9f7d" y="373.882138"/>
     <use style="fill:#2a9eb3;stroke:#2a9eb3;" x="204.435847" xlink:href="#mcc075c9f7d" y="357.314123"/>
     <use style="fill:#2a9eb3;stroke:#2a9eb3;" x="197.987738" xlink:href="#mcc075c9f7d" y="347.566621"/>
     <use style="fill:#2a9eb3;stroke:#2a9eb3;" x="230.228282" xlink:href="#mcc075c9f7d" y="344.62935"/>
     <use style="fill:#2a9eb3;stroke:#2a9eb3;" x="462.360203" xlink:href="#mcc075c9f7d" y="163.819987"/>
     <use style="fill:#2a9eb3;stroke:#2a9eb3;" x="501.048856" xlink:href="#mcc075c9f7d" y="127.89183"/>
     <use style="fill:#2a9eb3;stroke:#2a9eb3;" x="494.600747" xlink:href="#mcc075c9f7d" y="137.954955"/>
     <use style="fill:#2a9eb3;stroke:#2a9eb3;" x="520.393183" xlink:href="#mcc075c9f7d" y="141.62843"/>
     <use style="fill:#2a9eb3;stroke:#2a9eb3;" x="481.704529" xlink:href="#mcc075c9f7d" y="155.223649"/>
     <use style="fill:#2a9eb3;stroke:#2a9eb3;" x="397.879114" xlink:href="#mcc075c9f7d" y="193.620198"/>
     <use style="fill:#2a9eb3;stroke:#2a9eb3;" x="397.879114" xlink:href="#mcc075c9f7d" y="210.698355"/>
     <use style="fill:#2a9eb3;stroke:#2a9eb3;" x="507.496965" xlink:href="#mcc075c9f7d" y="110.487317"/>
     <use style="fill:#2a9eb3;stroke:#2a9eb3;" x="462.360203" xlink:href="#mcc075c9f7d" y="153.270901"/>
     <use style="fill:#2a9eb3;stroke:#2a9eb3;" x="294.709371" xlink:href="#mcc075c9f7d" y="300.875477"/>
     <use style="fill:#2a9eb3;stroke:#2a9eb3;" x="294.709371" xlink:href="#mcc075c9f7d" y="297.422908"/>
     <use style="fill:#2a9eb3;stroke:#2a9eb3;" x="320.501807" xlink:href="#mcc075c9f7d" y="279.10574"/>
     <use style="fill:#2a9eb3;stroke:#2a9eb3;" x="365.638569" xlink:href="#mcc075c9f7d" y="264.446968"/>
     <use style="fill:#2a9eb3;stroke:#2a9eb3;" x="320.501807" xlink:href="#mcc075c9f7d" y="297.156862"/>
     <use style="fill:#2a9eb3;stroke:#2a9eb3;" x="449.463985" xlink:href="#mcc075c9f7d" y="182.121933"/>
     <use style="fill:#2a9eb3;stroke:#2a9eb3;" x="397.879114" xlink:href="#mcc075c9f7d" y="236.544992"/>
     <use style="fill:#2a9eb3;stroke:#2a9eb3;" x="294.709371" xlink:href="#mcc075c9f7d" y="346.268094"/>
     <use style="fill:#2a9eb3;stroke:#2a9eb3;" x="526.841292" xlink:href="#mcc075c9f7d" y="115.86894"/>
     <use style="fill:#2a9eb3;stroke:#2a9eb3;" x="552.633727" xlink:href="#mcc075c9f7d" y="95.770947"/>
     <use style="fill:#2a9eb3;stroke:#2a9eb3;" x="443.015876" xlink:href="#mcc075c9f7d" y="147.026908"/>
     <use style="fill:#2a9eb3;stroke:#2a9eb3;" x="581.650217" xlink:href="#mcc075c9f7d" y="50.779773"/>
     <use style="fill:#2a9eb3;stroke:#2a9eb3;" x="423.671549" xlink:href="#mcc075c9f7d" y="166.374788"/>
     <use style="fill:#2a9eb3;stroke:#2a9eb3;" x="436.567767" xlink:href="#mcc075c9f7d" y="169.135254"/>
     <use style="fill:#2a9eb3;stroke:#2a9eb3;" x="417.22344" xlink:href="#mcc075c9f7d" y="176.3337"/>
     <use style="fill:#2a9eb3;stroke:#2a9eb3;" x="281.813153" xlink:href="#mcc075c9f7d" y="210.788648"/>
     <use style="fill:#2a9eb3;stroke:#2a9eb3;" x="294.709371" xlink:href="#mcc075c9f7d" y="304.513493"/>
     <use style="fill:#2a9eb3;stroke:#2a9eb3;" x="275.365045" xlink:href="#mcc075c9f7d" y="303.946482"/>
     <use style="fill:#2a9eb3;stroke:#2a9eb3;" x="243.1245" xlink:href="#mcc075c9f7d" y="345.071152"/>
     <use style="fill:#2a9eb3;stroke:#2a9eb3;" x="256.020718" xlink:href="#mcc075c9f7d" y="325.837401"/>
     <use style="fill:#2a9eb3;stroke:#2a9eb3;" x="384.982896" xlink:href="#mcc075c9f7d" y="223.847154"/>
     <use style="fill:#2a9eb3;stroke:#2a9eb3;" x="359.19046" xlink:href="#mcc075c9f7d" y="266.602558"/>
     <use style="fill:#2a9eb3;stroke:#2a9eb3;" x="378.534787" xlink:href="#mcc075c9f7d" y="232.091759"/>
     <use style="fill:#2a9eb3;stroke:#2a9eb3;" x="359.19046" xlink:href="#mcc075c9f7d" y="290.5195"/>
     <use style="fill:#2a9eb3;stroke:#2a9eb3;" x="352.742351" xlink:href="#mcc075c9f7d" y="284.775412"/>
     <use style="fill:#2a9eb3;stroke:#2a9eb3;" x="410.775331" xlink:href="#mcc075c9f7d" y="215.054227"/>
     <use style="fill:#2a9eb3;stroke:#2a9eb3;" x="346.294242" xlink:href="#mcc075c9f7d" y="306.077749"/>
     <use style="fill:#2a9eb3;stroke:#2a9eb3;" x="381.758841" xlink:href="#mcc075c9f7d" y="261.096729"/>
     <use style="fill:#2a9eb3;stroke:#2a9eb3;" x="181.867465" xlink:href="#mcc075c9f7d" y="370.860163"/>
     <use style="fill:#2a9eb3;stroke:#2a9eb3;" x="210.883955" xlink:href="#mcc075c9f7d" y="347.303258"/>
     <use style="fill:#2a9eb3;stroke:#2a9eb3;" x="185.09152" xlink:href="#mcc075c9f7d" y="382.51025"/>
     <use style="fill:#2a9eb3;stroke:#2a9eb3;" x="217.332064" xlink:href="#mcc075c9f7d" y="365.842851"/>
     <use style="fill:#2a9eb3;stroke:#2a9eb3;" x="146.402866" xlink:href="#mcc075c9f7d" y="391.170445"/>
     <use style="fill:#2a9eb3;stroke:#2a9eb3;" x="172.195302" xlink:href="#mcc075c9f7d" y="373.315556"/>
     <use style="fill:#2a9eb3;stroke:#2a9eb3;" x="217.332064" xlink:href="#mcc075c9f7d" y="352.726794"/>
     <use style="fill:#2a9eb3;stroke:#2a9eb3;" x="236.676391" xlink:href="#mcc075c9f7d" y="324.072908"/>
     <use style="fill:#2a9eb3;stroke:#2a9eb3;" x="243.1245" xlink:href="#mcc075c9f7d" y="334.691058"/>
     <use style="fill:#2a9eb3;stroke:#2a9eb3;" x="339.846134" xlink:href="#mcc075c9f7d" y="246.549394"/>
     <use style="fill:#2a9eb3;stroke:#2a9eb3;" x="217.332064" xlink:href="#mcc075c9f7d" y="363.716331"/>
     <use style="fill:#2a9eb3;stroke:#2a9eb3;" x="404.327223" xlink:href="#mcc075c9f7d" y="213.107612"/>
     <use style="fill:#2a9eb3;stroke:#2a9eb3;" x="301.15748" xlink:href="#mcc075c9f7d" y="307.3234"/>
     <use style="fill:#2a9eb3;stroke:#2a9eb3;" x="307.605589" xlink:href="#mcc075c9f7d" y="287.498626"/>
     <use style="fill:#2a9eb3;stroke:#2a9eb3;" x="165.747193" xlink:href="#mcc075c9f7d" y="369.49481"/>
     <use style="fill:#2a9eb3;stroke:#2a9eb3;" x="139.954758" xlink:href="#mcc075c9f7d" y="366.66552"/>
     <use style="fill:#2a9eb3;stroke:#2a9eb3;" x="146.402866" xlink:href="#mcc075c9f7d" y="371.974623"/>
     <use style="fill:#2a9eb3;stroke:#2a9eb3;" x="288.261262" xlink:href="#mcc075c9f7d" y="300.828332"/>
     <use style="fill:#2a9eb3;stroke:#2a9eb3;" x="475.25642" xlink:href="#mcc075c9f7d" y="192.699837"/>
     <use style="fill:#2a9eb3;stroke:#2a9eb3;" x="578.426163" xlink:href="#mcc075c9f7d" y="137.097059"/>
     <use style="fill:#2a9eb3;stroke:#2a9eb3;" x="533.289401" xlink:href="#mcc075c9f7d" y="165.283264"/>
     <use style="fill:#2a9eb3;stroke:#2a9eb3;" x="384.982896" xlink:href="#mcc075c9f7d" y="259.199954"/>
     <use style="fill:#2a9eb3;stroke:#2a9eb3;" x="294.709371" xlink:href="#mcc075c9f7d" y="318.007402"/>
     <use style="fill:#2a9eb3;stroke:#2a9eb3;" x="333.398025" xlink:href="#mcc075c9f7d" y="275.337107"/>
     <use style="fill:#2a9eb3;stroke:#2a9eb3;" x="417.22344" xlink:href="#mcc075c9f7d" y="228.102707"/>
     <use style="fill:#2a9eb3;stroke:#2a9eb3;" x="262.468827" xlink:href="#mcc075c9f7d" y="342.865571"/>
     <use style="fill:#2a9eb3;stroke:#2a9eb3;" x="249.572609" xlink:href="#mcc075c9f7d" y="326.406181"/>
     <use style="fill:#2a9eb3;stroke:#2a9eb3;" x="249.572609" xlink:href="#mcc075c9f7d" y="348.742514"/>
     <use style="fill:#2a9eb3;stroke:#2a9eb3;" x="159.299084" xlink:href="#mcc075c9f7d" y="416.664944"/>
     <use style="fill:#2a9eb3;stroke:#2a9eb3;" x="178.643411" xlink:href="#mcc075c9f7d" y="382.774061"/>
     <use style="fill:#2a9eb3;stroke:#2a9eb3;" x="520.393183" xlink:href="#mcc075c9f7d" y="153.038896"/>
     <use style="fill:#2a9eb3;stroke:#2a9eb3;" x="552.633727" xlink:href="#mcc075c9f7d" y="156.289964"/>
     <use style="fill:#2a9eb3;stroke:#2a9eb3;" x="436.567767" xlink:href="#mcc075c9f7d" y="230.719963"/>
     <use style="fill:#2a9eb3;stroke:#2a9eb3;" x="520.393183" xlink:href="#mcc075c9f7d" y="186.071239"/>
     <use style="fill:#2a9eb3;stroke:#2a9eb3;" x="488.152638" xlink:href="#mcc075c9f7d" y="201.307571"/>
     <use style="fill:#2a9eb3;stroke:#2a9eb3;" x="268.916936" xlink:href="#mcc075c9f7d" y="343.139065"/>
     <use style="fill:#2a9eb3;stroke:#2a9eb3;" x="204.435847" xlink:href="#mcc075c9f7d" y="395.431259"/>
     <use style="fill:#2a9eb3;stroke:#2a9eb3;" x="210.883955" xlink:href="#mcc075c9f7d" y="317.029338"/>
     <use style="fill:#2a9eb3;stroke:#2a9eb3;" x="94.817995" xlink:href="#mcc075c9f7d" y="380.155831"/>
     <use style="fill:#2a9eb3;stroke:#2a9eb3;" x="217.332064" xlink:href="#mcc075c9f7d" y="281.411932"/>
     <use style="fill:#2a9eb3;stroke:#2a9eb3;" x="217.332064" xlink:href="#mcc075c9f7d" y="348.425101"/>
     <use style="fill:#2a9eb3;stroke:#2a9eb3;" x="288.261262" xlink:href="#mcc075c9f7d" y="299.084825"/>
     <use style="fill:#2a9eb3;stroke:#2a9eb3;" x="159.299084" xlink:href="#mcc075c9f7d" y="384.806139"/>
     <use style="fill:#2a9eb3;stroke:#2a9eb3;" x="365.638569" xlink:href="#mcc075c9f7d" y="240.606452"/>
     <use style="fill:#2a9eb3;stroke:#2a9eb3;" x="243.1245" xlink:href="#mcc075c9f7d" y="298.822699"/>
     <use style="fill:#2a9eb3;stroke:#2a9eb3;" x="320.501807" xlink:href="#mcc075c9f7d" y="275.930552"/>
     <use style="fill:#2a9eb3;stroke:#2a9eb3;" x="275.365045" xlink:href="#mcc075c9f7d" y="307.557883"/>
     <use style="fill:#2a9eb3;stroke:#2a9eb3;" x="339.846134" xlink:href="#mcc075c9f7d" y="226.473763"/>
     <use style="fill:#2a9eb3;stroke:#2a9eb3;" x="301.15748" xlink:href="#mcc075c9f7d" y="267.82532"/>
     <use style="fill:#2a9eb3;stroke:#2a9eb3;" x="372.086678" xlink:href="#mcc075c9f7d" y="206.825186"/>
     <use style="fill:#2a9eb3;stroke:#2a9eb3;" x="294.709371" xlink:href="#mcc075c9f7d" y="312.455042"/>
     <use style="fill:#2a9eb3;stroke:#2a9eb3;" x="326.949916" xlink:href="#mcc075c9f7d" y="246.594929"/>
     <use style="fill:#2a9eb3;stroke:#2a9eb3;" x="288.261262" xlink:href="#mcc075c9f7d" y="318.354231"/>
     <use style="fill:#2a9eb3;stroke:#2a9eb3;" x="468.808312" xlink:href="#mcc075c9f7d" y="192.953195"/>
     <use style="fill:#2a9eb3;stroke:#2a9eb3;" x="468.808312" xlink:href="#mcc075c9f7d" y="206.714661"/>
     <use style="fill:#2a9eb3;stroke:#2a9eb3;" x="468.808312" xlink:href="#mcc075c9f7d" y="169.460759"/>
     <use style="fill:#2a9eb3;stroke:#2a9eb3;" x="326.949916" xlink:href="#mcc075c9f7d" y="285.779452"/>
     <use style="fill:#2a9eb3;stroke:#2a9eb3;" x="288.261262" xlink:href="#mcc075c9f7d" y="293.901553"/>
     <use style="fill:#2a9eb3;stroke:#2a9eb3;" x="301.15748" xlink:href="#mcc075c9f7d" y="278.29647"/>
     <use style="fill:#2a9eb3;stroke:#2a9eb3;" x="410.775331" xlink:href="#mcc075c9f7d" y="216.884275"/>
     <use style="fill:#2a9eb3;stroke:#2a9eb3;" x="268.916936" xlink:href="#mcc075c9f7d" y="341.576883"/>
     <use style="fill:#2a9eb3;stroke:#2a9eb3;" x="352.742351" xlink:href="#mcc075c9f7d" y="283.900886"/>
     <use style="fill:#2a9eb3;stroke:#2a9eb3;" x="475.25642" xlink:href="#mcc075c9f7d" y="179.006251"/>
     <use style="fill:#2a9eb3;stroke:#2a9eb3;" x="374.214554" xlink:href="#mcc075c9f7d" y="271.543462"/>
     <use style="fill:#2a9eb3;stroke:#2a9eb3;" x="307.605589" xlink:href="#mcc075c9f7d" y="297.803887"/>
     <use style="fill:#2a9eb3;stroke:#2a9eb3;" x="473.128545" xlink:href="#mcc075c9f7d" y="179.803196"/>
     <use style="fill:#2a9eb3;stroke:#2a9eb3;" x="563.402069" xlink:href="#mcc075c9f7d" y="137.165892"/>
     <use style="fill:#2a9eb3;stroke:#2a9eb3;" x="503.176732" xlink:href="#mcc075c9f7d" y="168.493663"/>
     <use style="fill:#2a9eb3;stroke:#2a9eb3;" x="595.642614" xlink:href="#mcc075c9f7d" y="130.231562"/>
     <use style="fill:#2a9eb3;stroke:#2a9eb3;" x="443.015876" xlink:href="#mcc075c9f7d" y="196.42267"/>
     <use style="fill:#2a9eb3;stroke:#2a9eb3;" x="159.299084" xlink:href="#mcc075c9f7d" y="385.595875"/>
     <use style="fill:#2a9eb3;stroke:#2a9eb3;" x="223.780173" xlink:href="#mcc075c9f7d" y="335.436242"/>
     <use style="fill:#2a9eb3;stroke:#2a9eb3;" x="262.468827" xlink:href="#mcc075c9f7d" y="314.993665"/>
     <use style="fill:#2a9eb3;stroke:#2a9eb3;" x="159.299084" xlink:href="#mcc075c9f7d" y="396.126136"/>
     <use style="fill:#2a9eb3;stroke:#2a9eb3;" x="266.78906" xlink:href="#mcc075c9f7d" y="318.376976"/>
     <use style="fill:#2a9eb3;stroke:#2a9eb3;" x="178.643411" xlink:href="#mcc075c9f7d" y="384.121917"/>
     <use style="fill:#2a9eb3;stroke:#2a9eb3;" x="339.846134" xlink:href="#mcc075c9f7d" y="271.187687"/>
     <use style="fill:#2a9eb3;stroke:#2a9eb3;" x="346.294242" xlink:href="#mcc075c9f7d" y="278.934274"/>
     <use style="fill:#2a9eb3;stroke:#2a9eb3;" x="249.572609" xlink:href="#mcc075c9f7d" y="359.400663"/>
     <use style="fill:#2a9eb3;stroke:#2a9eb3;" x="333.398025" xlink:href="#mcc075c9f7d" y="271.730614"/>
     <use style="fill:#2a9eb3;stroke:#2a9eb3;" x="423.671549" xlink:href="#mcc075c9f7d" y="228.318217"/>
     <use style="fill:#2a9eb3;stroke:#2a9eb3;" x="507.496965" xlink:href="#mcc075c9f7d" y="151.882473"/>
     <use style="fill:#2a9eb3;stroke:#2a9eb3;" x="341.974009" xlink:href="#mcc075c9f7d" y="327.941287"/>
     <use style="fill:#2a9eb3;stroke:#2a9eb3;" x="462.360203" xlink:href="#mcc075c9f7d" y="237.189562"/>
     <use style="fill:#2a9eb3;stroke:#2a9eb3;" x="423.671549" xlink:href="#mcc075c9f7d" y="255.358753"/>
     <use style="fill:#2a9eb3;stroke:#2a9eb3;" x="384.982896" xlink:href="#mcc075c9f7d" y="265.787777"/>
     <use style="fill:#2a9eb3;stroke:#2a9eb3;" x="430.119658" xlink:href="#mcc075c9f7d" y="231.404438"/>
     <use style="fill:#2a9eb3;stroke:#2a9eb3;" x="378.534787" xlink:href="#mcc075c9f7d" y="268.16207"/>
     <use style="fill:#2a9eb3;stroke:#2a9eb3;" x="430.119658" xlink:href="#mcc075c9f7d" y="246.05978"/>
     <use style="fill:#2a9eb3;stroke:#2a9eb3;" x="513.945074" xlink:href="#mcc075c9f7d" y="177.184811"/>
     <use style="fill:#2a9eb3;stroke:#2a9eb3;" x="249.572609" xlink:href="#mcc075c9f7d" y="376.420934"/>
     <use style="fill:#2a9eb3;stroke:#2a9eb3;" x="290.389138" xlink:href="#mcc075c9f7d" y="331.970526"/>
     <use style="fill:#2a9eb3;stroke:#2a9eb3;" x="292.581495" xlink:href="#mcc075c9f7d" y="329.060835"/>
     <use style="fill:#2a9eb3;stroke:#2a9eb3;" x="247.444733" xlink:href="#mcc075c9f7d" y="364.137735"/>
     <use style="fill:#2a9eb3;stroke:#2a9eb3;" x="245.252376" xlink:href="#mcc075c9f7d" y="358.273626"/>
     <use style="fill:#2a9eb3;stroke:#2a9eb3;" x="236.676391" xlink:href="#mcc075c9f7d" y="353.02275"/>
     <use style="fill:#2a9eb3;stroke:#2a9eb3;" x="359.19046" xlink:href="#mcc075c9f7d" y="271.060504"/>
     <use style="fill:#2a9eb3;stroke:#2a9eb3;" x="346.294242" xlink:href="#mcc075c9f7d" y="288.3333"/>
     <use style="fill:#2a9eb3;stroke:#2a9eb3;" x="305.477713" xlink:href="#mcc075c9f7d" y="314.359678"/>
     <use style="fill:#2a9eb3;stroke:#2a9eb3;" x="294.709371" xlink:href="#mcc075c9f7d" y="353.788571"/>
    </g>
   </g>
   <g id="line2d_16">
    <path clip-path="url(#p52d187ef4a)" d="M 88.369886 444.738155 
L 595.642614 102.6551 
" style="fill:none;stroke:#000000;stroke-linecap:square;stroke-width:1.5;"/>
   </g>
   <g id="patch_3">
    <path d="M 63.00625 465.8925 
L 63.00625 31.0125 
" style="fill:none;stroke:#000000;stroke-linecap:square;stroke-linejoin:miter;stroke-width:0.8;"/>
   </g>
   <g id="patch_4">
    <path d="M 621.00625 465.8925 
L 621.00625 31.0125 
" style="fill:none;stroke:#000000;stroke-linecap:square;stroke-linejoin:miter;stroke-width:0.8;"/>
   </g>
   <g id="patch_5">
    <path d="M 63.00625 465.8925 
L 621.00625 465.8925 
" style="fill:none;stroke:#000000;stroke-linecap:square;stroke-linejoin:miter;stroke-width:0.8;"/>
   </g>
   <g id="patch_6">
    <path d="M 63.00625 31.0125 
L 621.00625 31.0125 
" style="fill:none;stroke:#000000;stroke-linecap:square;stroke-linejoin:miter;stroke-width:0.8;"/>
   </g>
   <g id="text_17">
    <!-- 6 lv  -->
    <g transform="translate(151.561354 99.787106)scale(0.2 -0.2)">
     <defs>
      <path d="M 603 4863 
L 1178 4863 
L 1178 0 
L 603 0 
L 603 4863 
z
" id="DejaVuSans-6c" transform="scale(0.015625)"/>
     </defs>
     <use xlink:href="#DejaVuSans-36"/>
     <use x="63.623047" xlink:href="#DejaVuSans-20"/>
     <use x="95.410156" xlink:href="#DejaVuSans-6c"/>
     <use x="123.193359" xlink:href="#DejaVuSans-76"/>
     <use x="182.373047" xlink:href="#DejaVuSans-20"/>
    </g>
    <!-- RMSEP: 0.60  -->
    <g transform="translate(151.561354 122.182731)scale(0.2 -0.2)">
     <defs>
      <path d="M 2841 2188 
Q 3044 2119 3236 1894 
Q 3428 1669 3622 1275 
L 4263 0 
L 3584 0 
L 2988 1197 
Q 2756 1666 2539 1819 
Q 2322 1972 1947 1972 
L 1259 1972 
L 1259 0 
L 628 0 
L 628 4666 
L 2053 4666 
Q 2853 4666 3247 4331 
Q 3641 3997 3641 3322 
Q 3641 2881 3436 2590 
Q 3231 2300 2841 2188 
z
M 1259 4147 
L 1259 2491 
L 2053 2491 
Q 2509 2491 2742 2702 
Q 2975 2913 2975 3322 
Q 2975 3731 2742 3939 
Q 2509 4147 2053 4147 
L 1259 4147 
z
" id="DejaVuSans-52" transform="scale(0.015625)"/>
      <path d="M 628 4666 
L 1569 4666 
L 2759 1491 
L 3956 4666 
L 4897 4666 
L 4897 0 
L 4281 0 
L 4281 4097 
L 3078 897 
L 2444 897 
L 1241 4097 
L 1241 0 
L 628 0 
L 628 4666 
z
" id="DejaVuSans-4d" transform="scale(0.015625)"/>
      <path d="M 3425 4513 
L 3425 3897 
Q 3066 4069 2747 4153 
Q 2428 4238 2131 4238 
Q 1616 4238 1336 4038 
Q 1056 3838 1056 3469 
Q 1056 3159 1242 3001 
Q 1428 2844 1947 2747 
L 2328 2669 
Q 3034 2534 3370 2195 
Q 3706 1856 3706 1288 
Q 3706 609 3251 259 
Q 2797 -91 1919 -91 
Q 1588 -91 1214 -16 
Q 841 59 441 206 
L 441 856 
Q 825 641 1194 531 
Q 1563 422 1919 422 
Q 2459 422 2753 634 
Q 3047 847 3047 1241 
Q 3047 1584 2836 1778 
Q 2625 1972 2144 2069 
L 1759 2144 
Q 1053 2284 737 2584 
Q 422 2884 422 3419 
Q 422 4038 858 4394 
Q 1294 4750 2059 4750 
Q 2388 4750 2728 4690 
Q 3069 4631 3425 4513 
z
" id="DejaVuSans-53" transform="scale(0.015625)"/>
      <path d="M 628 4666 
L 3578 4666 
L 3578 4134 
L 1259 4134 
L 1259 2753 
L 3481 2753 
L 3481 2222 
L 1259 2222 
L 1259 531 
L 3634 531 
L 3634 0 
L 628 0 
L 628 4666 
z
" id="DejaVuSans-45" transform="scale(0.015625)"/>
      <path d="M 750 794 
L 1409 794 
L 1409 0 
L 750 0 
L 750 794 
z
M 750 3309 
L 1409 3309 
L 1409 2516 
L 750 2516 
L 750 3309 
z
" id="DejaVuSans-3a" transform="scale(0.015625)"/>
      <path d="M 684 794 
L 1344 794 
L 1344 0 
L 684 0 
L 684 794 
z
" id="DejaVuSans-2e" transform="scale(0.015625)"/>
     </defs>
     <use xlink:href="#DejaVuSans-52"/>
     <use x="69.482422" xlink:href="#DejaVuSans-4d"/>
     <use x="155.761719" xlink:href="#DejaVuSans-53"/>
     <use x="219.238281" xlink:href="#DejaVuSans-45"/>
     <use x="282.421875" xlink:href="#DejaVuSans-50"/>
     <use x="342.724609" xlink:href="#DejaVuSans-3a"/>
     <use x="376.416016" xlink:href="#DejaVuSans-20"/>
     <use x="408.203125" xlink:href="#DejaVuSans-30"/>
     <use x="471.826172" xlink:href="#DejaVuSans-2e"/>
     <use x="503.613281" xlink:href="#DejaVuSans-36"/>
     <use x="567.236328" xlink:href="#DejaVuSans-30"/>
     <use x="630.859375" xlink:href="#DejaVuSans-20"/>
    </g>
    <!-- $r^2_p$: 0.91 -->
    <g transform="translate(151.561354 148.182106)scale(0.2 -0.2)">
     <defs>
      <path d="M 2853 2969 
Q 2766 3016 2653 3041 
Q 2541 3066 2413 3066 
Q 1953 3066 1609 2717 
Q 1266 2369 1153 1784 
L 800 0 
L 225 0 
L 909 3500 
L 1484 3500 
L 1375 2956 
Q 1603 3259 1920 3421 
Q 2238 3584 2597 3584 
Q 2691 3584 2781 3573 
Q 2872 3563 2963 3538 
L 2853 2969 
z
" id="DejaVuSans-Oblique-72" transform="scale(0.015625)"/>
      <path d="M 3175 2156 
Q 3175 2616 2975 2859 
Q 2775 3103 2400 3103 
Q 2144 3103 1911 2972 
Q 1678 2841 1497 2591 
Q 1319 2344 1212 1994 
Q 1106 1644 1106 1300 
Q 1106 863 1306 627 
Q 1506 391 1875 391 
Q 2147 391 2380 519 
Q 2613 647 2778 891 
Q 2956 1147 3065 1494 
Q 3175 1841 3175 2156 
z
M 1394 2969 
Q 1625 3272 1939 3428 
Q 2253 3584 2638 3584 
Q 3175 3584 3472 3232 
Q 3769 2881 3769 2247 
Q 3769 1728 3584 1258 
Q 3400 788 3053 416 
Q 2822 169 2531 39 
Q 2241 -91 1919 -91 
Q 1547 -91 1294 64 
Q 1041 219 916 525 
L 556 -1331 
L -19 -1331 
L 922 3500 
L 1497 3500 
L 1394 2969 
z
" id="DejaVuSans-Oblique-70" transform="scale(0.015625)"/>
     </defs>
     <use transform="translate(0 0.765625)" xlink:href="#DejaVuSans-Oblique-72"/>
     <use transform="translate(45.763177 39.046875)scale(0.7)" xlink:href="#DejaVuSans-32"/>
     <use transform="translate(41.113281 -26.578125)scale(0.7)" xlink:href="#DejaVuSans-Oblique-70"/>
     <use transform="translate(93.033685 0.765625)" xlink:href="#DejaVuSans-3a"/>
     <use transform="translate(126.725091 0.765625)" xlink:href="#DejaVuSans-20"/>
     <use transform="translate(158.512201 0.765625)" xlink:href="#DejaVuSans-30"/>
     <use transform="translate(222.135247 0.765625)" xlink:href="#DejaVuSans-2e"/>
     <use transform="translate(253.922357 0.765625)" xlink:href="#DejaVuSans-39"/>
     <use transform="translate(317.545404 0.765625)" xlink:href="#DejaVuSans-31"/>
    </g>
   </g>
   <g id="text_18">
    <!-- Instr_2 -->
    <g transform="translate(301.3375 25.0125)scale(0.24 -0.24)">
     <defs>
      <path d="M 628 4666 
L 1259 4666 
L 1259 0 
L 628 0 
L 628 4666 
z
" id="DejaVuSans-49" transform="scale(0.015625)"/>
      <path d="M 3513 2113 
L 3513 0 
L 2938 0 
L 2938 2094 
Q 2938 2591 2744 2837 
Q 2550 3084 2163 3084 
Q 1697 3084 1428 2787 
Q 1159 2491 1159 1978 
L 1159 0 
L 581 0 
L 581 3500 
L 1159 3500 
L 1159 2956 
Q 1366 3272 1645 3428 
Q 1925 3584 2291 3584 
Q 2894 3584 3203 3211 
Q 3513 2838 3513 2113 
z
" id="DejaVuSans-6e" transform="scale(0.015625)"/>
      <path d="M 3263 -1063 
L 3263 -1509 
L -63 -1509 
L -63 -1063 
L 3263 -1063 
z
" id="DejaVuSans-5f" transform="scale(0.015625)"/>
     </defs>
     <use xlink:href="#DejaVuSans-49"/>
     <use x="29.492188" xlink:href="#DejaVuSans-6e"/>
     <use x="92.871094" xlink:href="#DejaVuSans-73"/>
     <use x="144.970703" xlink:href="#DejaVuSans-74"/>
     <use x="184.179688" xlink:href="#DejaVuSans-72"/>
     <use x="225.292969" xlink:href="#DejaVuSans-5f"/>
     <use x="275.292969" xlink:href="#DejaVuSans-32"/>
    </g>
   </g>
  </g>
 </g>
 <defs>
  <clipPath id="p52d187ef4a">
   <rect height="434.88" width="558" x="63.00625" y="31.0125"/>
  </clipPath>
 </defs>
</svg>
