<?xml version="1.0" encoding="utf-8" standalone="no"?>
<!DOCTYPE svg PUBLIC "-//W3C//DTD SVG 1.1//EN"
  "http://www.w3.org/Graphics/SVG/1.1/DTD/svg11.dtd">
<svg height="468.86875pt" version="1.1" viewBox="0 0 1074.60625 468.86875" width="1074.60625pt" xmlns="http://www.w3.org/2000/svg" xmlns:xlink="http://www.w3.org/1999/xlink">
 <metadata>
  <rdf:RDF xmlns:cc="http://creativecommons.org/ns#" xmlns:dc="http://purl.org/dc/elements/1.1/" xmlns:rdf="http://www.w3.org/1999/02/22-rdf-syntax-ns#">
   <cc:Work>
    <dc:type rdf:resource="http://purl.org/dc/dcmitype/StillImage"/>
    <dc:date>2022-06-21T17:03:25.278890</dc:date>
    <dc:format>image/svg+xml</dc:format>
    <dc:creator>
     <cc:Agent>
      <dc:title>Matplotlib v3.4.2, https://matplotlib.org/</dc:title>
     </cc:Agent>
    </dc:creator>
   </cc:Work>
  </rdf:RDF>
 </metadata>
 <defs>
  <style type="text/css">*{stroke-linecap:butt;stroke-linejoin:round;}</style>
 </defs>
 <g id="figure_1">
  <g id="patch_1">
   <path d="M 0 468.86875 
L 1074.60625 468.86875 
L 1074.60625 0 
L 0 0 
z
" style="fill:none;"/>
  </g>
  <g id="axes_1">
   <g id="patch_2">
    <path d="M 63.00625 411.95625 
L 519.551705 411.95625 
L 519.551705 31.43625 
L 63.00625 31.43625 
z
" style="fill:#ffffff;"/>
   </g>
   <g id="PathCollection_1">
    <defs>
     <path d="M 0 3 
C 0.795609 3 1.55874 2.683901 2.12132 2.12132 
C 2.683901 1.55874 3 0.795609 3 0 
C 3 -0.795609 2.683901 -1.55874 2.12132 -2.12132 
C 1.55874 -2.683901 0.795609 -3 0 -3 
C -0.795609 -3 -1.55874 -2.683901 -2.12132 -2.12132 
C -2.683901 -1.55874 -3 -0.795609 -3 0 
C -3 0.795609 -2.683901 1.55874 -2.12132 2.12132 
C -1.55874 2.683901 -0.795609 3 0 3 
z
" id="m4d88c1238a" style="stroke:#1f77b4;"/>
    </defs>
    <g clip-path="url(#p1a32eeedee)">
     <use style="fill:#1f77b4;stroke:#1f77b4;" x="214.62623" xlink:href="#m4d88c1238a" y="258.036085"/>
     <use style="fill:#1f77b4;stroke:#1f77b4;" x="249.924669" xlink:href="#m4d88c1238a" y="237.494245"/>
     <use style="fill:#1f77b4;stroke:#1f77b4;" x="333.034813" xlink:href="#m4d88c1238a" y="170.654157"/>
     <use style="fill:#1f77b4;stroke:#1f77b4;" x="303.411692" xlink:href="#m4d88c1238a" y="186.414336"/>
     <use style="fill:#1f77b4;stroke:#1f77b4;" x="314.822257" xlink:href="#m4d88c1238a" y="173.381042"/>
     <use style="fill:#1f77b4;stroke:#1f77b4;" x="244.932546" xlink:href="#m4d88c1238a" y="209.321312"/>
     <use style="fill:#1f77b4;stroke:#1f77b4;" x="349.755126" xlink:href="#m4d88c1238a" y="147.205481"/>
     <use style="fill:#1f77b4;stroke:#1f77b4;" x="272.745799" xlink:href="#m4d88c1238a" y="240.89561"/>
     <use style="fill:#1f77b4;stroke:#1f77b4;" x="252.77731" xlink:href="#m4d88c1238a" y="238.719789"/>
     <use style="fill:#1f77b4;stroke:#1f77b4;" x="286.649428" xlink:href="#m4d88c1238a" y="221.708634"/>
     <use style="fill:#1f77b4;stroke:#1f77b4;" x="192.871844" xlink:href="#m4d88c1238a" y="238.00487"/>
     <use style="fill:#1f77b4;stroke:#1f77b4;" x="284.156364" xlink:href="#m4d88c1238a" y="213.730136"/>
     <use style="fill:#1f77b4;stroke:#1f77b4;" x="227.463115" xlink:href="#m4d88c1238a" y="252.47498"/>
     <use style="fill:#1f77b4;stroke:#1f77b4;" x="170.050714" xlink:href="#m4d88c1238a" y="316.604687"/>
     <use style="fill:#1f77b4;stroke:#1f77b4;" x="263.121131" xlink:href="#m4d88c1238a" y="239.31105"/>
     <use style="fill:#1f77b4;stroke:#1f77b4;" x="125.121614" xlink:href="#m4d88c1238a" y="346.135511"/>
     <use style="fill:#1f77b4;stroke:#1f77b4;" x="214.266653" xlink:href="#m4d88c1238a" y="299.846529"/>
     <use style="fill:#1f77b4;stroke:#1f77b4;" x="263.474715" xlink:href="#m4d88c1238a" y="224.77235"/>
     <use style="fill:#1f77b4;stroke:#1f77b4;" x="249.571085" xlink:href="#m4d88c1238a" y="216.417138"/>
     <use style="fill:#1f77b4;stroke:#1f77b4;" x="337.64938" xlink:href="#m4d88c1238a" y="147.747572"/>
     <use style="fill:#1f77b4;stroke:#1f77b4;" x="231.022924" xlink:href="#m4d88c1238a" y="267.6185"/>
     <use style="fill:#1f77b4;stroke:#1f77b4;" x="236.021039" xlink:href="#m4d88c1238a" y="241.271745"/>
     <use style="fill:#1f77b4;stroke:#1f77b4;" x="395.421358" xlink:href="#m4d88c1238a" y="102.178083"/>
     <use style="fill:#1f77b4;stroke:#1f77b4;" x="344.780983" xlink:href="#m4d88c1238a" y="185.052627"/>
     <use style="fill:#1f77b4;stroke:#1f77b4;" x="259.908913" xlink:href="#m4d88c1238a" y="227.886692"/>
     <use style="fill:#1f77b4;stroke:#1f77b4;" x="247.425611" xlink:href="#m4d88c1238a" y="257.589486"/>
     <use style="fill:#1f77b4;stroke:#1f77b4;" x="364.737486" xlink:href="#m4d88c1238a" y="112.30563"/>
     <use style="fill:#1f77b4;stroke:#1f77b4;" x="254.916791" xlink:href="#m4d88c1238a" y="242.120526"/>
     <use style="fill:#1f77b4;stroke:#1f77b4;" x="253.49047" xlink:href="#m4d88c1238a" y="238.986169"/>
     <use style="fill:#1f77b4;stroke:#1f77b4;" x="195.011325" xlink:href="#m4d88c1238a" y="285.325895"/>
     <use style="fill:#1f77b4;stroke:#1f77b4;" x="240.300001" xlink:href="#m4d88c1238a" y="283.576"/>
     <use style="fill:#1f77b4;stroke:#1f77b4;" x="361.860873" xlink:href="#m4d88c1238a" y="156.059675"/>
     <use style="fill:#1f77b4;stroke:#1f77b4;" x="291.287967" xlink:href="#m4d88c1238a" y="172.074896"/>
     <use style="fill:#1f77b4;stroke:#1f77b4;" x="174.689252" xlink:href="#m4d88c1238a" y="274.715511"/>
     <use style="fill:#1f77b4;stroke:#1f77b4;" x="158.993732" xlink:href="#m4d88c1238a" y="285.180023"/>
     <use style="fill:#1f77b4;stroke:#1f77b4;" x="180.748118" xlink:href="#m4d88c1238a" y="303.467033"/>
     <use style="fill:#1f77b4;stroke:#1f77b4;" x="169.337553" xlink:href="#m4d88c1238a" y="298.679654"/>
     <use style="fill:#1f77b4;stroke:#1f77b4;" x="293.073864" xlink:href="#m4d88c1238a" y="194.323028"/>
     <use style="fill:#1f77b4;stroke:#1f77b4;" x="304.838013" xlink:href="#m4d88c1238a" y="209.146944"/>
     <use style="fill:#1f77b4;stroke:#1f77b4;" x="383.974835" xlink:href="#m4d88c1238a" y="164.250627"/>
     <use style="fill:#1f77b4;stroke:#1f77b4;" x="482.079325" xlink:href="#m4d88c1238a" y="58.614569"/>
     <use style="fill:#1f77b4;stroke:#1f77b4;" x="367.973675" xlink:href="#m4d88c1238a" y="135.699985"/>
     <use style="fill:#1f77b4;stroke:#1f77b4;" x="91.60308" xlink:href="#m4d88c1238a" y="394.659886"/>
     <use style="fill:#1f77b4;stroke:#1f77b4;" x="498.799638" xlink:href="#m4d88c1238a" y="69.176082"/>
     <use style="fill:#1f77b4;stroke:#1f77b4;" x="203.569248" xlink:href="#m4d88c1238a" y="276.108945"/>
     <use style="fill:#1f77b4;stroke:#1f77b4;" x="231.736084" xlink:href="#m4d88c1238a" y="231.948431"/>
     <use style="fill:#1f77b4;stroke:#1f77b4;" x="487.053469" xlink:href="#m4d88c1238a" y="48.732614"/>
     <use style="fill:#1f77b4;stroke:#1f77b4;" x="230.66934" xlink:href="#m4d88c1238a" y="267.043663"/>
     <use style="fill:#1f77b4;stroke:#1f77b4;" x="83.758316" xlink:href="#m4d88c1238a" y="384.489342"/>
     <use style="fill:#1f77b4;stroke:#1f77b4;" x="253.850047" xlink:href="#m4d88c1238a" y="261.049239"/>
     <use style="fill:#1f77b4;stroke:#1f77b4;" x="298.41957" xlink:href="#m4d88c1238a" y="184.303023"/>
     <use style="fill:#1f77b4;stroke:#1f77b4;" x="169.337553" xlink:href="#m4d88c1238a" y="279.900875"/>
     <use style="fill:#1f77b4;stroke:#1f77b4;" x="185.380664" xlink:href="#m4d88c1238a" y="295.58095"/>
     <use style="fill:#1f77b4;stroke:#1f77b4;" x="207.84821" xlink:href="#m4d88c1238a" y="293.734926"/>
     <use style="fill:#1f77b4;stroke:#1f77b4;" x="414.299131" xlink:href="#m4d88c1238a" y="92.995637"/>
     <use style="fill:#1f77b4;stroke:#1f77b4;" x="326.232822" xlink:href="#m4d88c1238a" y="157.714347"/>
     <use style="fill:#1f77b4;stroke:#1f77b4;" x="205.349153" xlink:href="#m4d88c1238a" y="254.20676"/>
     <use style="fill:#1f77b4;stroke:#1f77b4;" x="361.561226" xlink:href="#m4d88c1238a" y="111.644682"/>
     <use style="fill:#1f77b4;stroke:#1f77b4;" x="266.327356" xlink:href="#m4d88c1238a" y="253.655747"/>
     <use style="fill:#1f77b4;stroke:#1f77b4;" x="197.504389" xlink:href="#m4d88c1238a" y="258.549296"/>
    </g>
   </g>
   <g id="matplotlib.axis_1">
    <g id="xtick_1">
     <g id="line2d_1">
      <defs>
       <path d="M 0 0 
L 0 3.5 
" id="m40a3170fa9" style="stroke:#000000;stroke-width:0.8;"/>
      </defs>
      <g>
       <use style="stroke:#000000;stroke-width:0.8;" x="90.32059" xlink:href="#m40a3170fa9" y="411.95625"/>
      </g>
     </g>
     <g id="text_1">
      <!-- 6 -->
      <g transform="translate(83.95809 434.153125)scale(0.2 -0.2)">
       <defs>
        <path d="M 2113 2584 
Q 1688 2584 1439 2293 
Q 1191 2003 1191 1497 
Q 1191 994 1439 701 
Q 1688 409 2113 409 
Q 2538 409 2786 701 
Q 3034 994 3034 1497 
Q 3034 2003 2786 2293 
Q 2538 2584 2113 2584 
z
M 3366 4563 
L 3366 3988 
Q 3128 4100 2886 4159 
Q 2644 4219 2406 4219 
Q 1781 4219 1451 3797 
Q 1122 3375 1075 2522 
Q 1259 2794 1537 2939 
Q 1816 3084 2150 3084 
Q 2853 3084 3261 2657 
Q 3669 2231 3669 1497 
Q 3669 778 3244 343 
Q 2819 -91 2113 -91 
Q 1303 -91 875 529 
Q 447 1150 447 2328 
Q 447 3434 972 4092 
Q 1497 4750 2381 4750 
Q 2619 4750 2861 4703 
Q 3103 4656 3366 4563 
z
" id="DejaVuSans-36" transform="scale(0.015625)"/>
       </defs>
       <use xlink:href="#DejaVuSans-36"/>
      </g>
     </g>
    </g>
    <g id="xtick_2">
     <g id="line2d_2">
      <g>
       <use style="stroke:#000000;stroke-width:0.8;" x="210.179465" xlink:href="#m40a3170fa9" y="411.95625"/>
      </g>
     </g>
     <g id="text_2">
      <!-- 8 -->
      <g transform="translate(203.816965 434.153125)scale(0.2 -0.2)">
       <defs>
        <path d="M 2034 2216 
Q 1584 2216 1326 1975 
Q 1069 1734 1069 1313 
Q 1069 891 1326 650 
Q 1584 409 2034 409 
Q 2484 409 2743 651 
Q 3003 894 3003 1313 
Q 3003 1734 2745 1975 
Q 2488 2216 2034 2216 
z
M 1403 2484 
Q 997 2584 770 2862 
Q 544 3141 544 3541 
Q 544 4100 942 4425 
Q 1341 4750 2034 4750 
Q 2731 4750 3128 4425 
Q 3525 4100 3525 3541 
Q 3525 3141 3298 2862 
Q 3072 2584 2669 2484 
Q 3125 2378 3379 2068 
Q 3634 1759 3634 1313 
Q 3634 634 3220 271 
Q 2806 -91 2034 -91 
Q 1263 -91 848 271 
Q 434 634 434 1313 
Q 434 1759 690 2068 
Q 947 2378 1403 2484 
z
M 1172 3481 
Q 1172 3119 1398 2916 
Q 1625 2713 2034 2713 
Q 2441 2713 2670 2916 
Q 2900 3119 2900 3481 
Q 2900 3844 2670 4047 
Q 2441 4250 2034 4250 
Q 1625 4250 1398 4047 
Q 1172 3844 1172 3481 
z
" id="DejaVuSans-38" transform="scale(0.015625)"/>
       </defs>
       <use xlink:href="#DejaVuSans-38"/>
      </g>
     </g>
    </g>
    <g id="xtick_3">
     <g id="line2d_3">
      <g>
       <use style="stroke:#000000;stroke-width:0.8;" x="330.038341" xlink:href="#m40a3170fa9" y="411.95625"/>
      </g>
     </g>
     <g id="text_3">
      <!-- 10 -->
      <g transform="translate(317.313341 434.153125)scale(0.2 -0.2)">
       <defs>
        <path d="M 794 531 
L 1825 531 
L 1825 4091 
L 703 3866 
L 703 4441 
L 1819 4666 
L 2450 4666 
L 2450 531 
L 3481 531 
L 3481 0 
L 794 0 
L 794 531 
z
" id="DejaVuSans-31" transform="scale(0.015625)"/>
        <path d="M 2034 4250 
Q 1547 4250 1301 3770 
Q 1056 3291 1056 2328 
Q 1056 1369 1301 889 
Q 1547 409 2034 409 
Q 2525 409 2770 889 
Q 3016 1369 3016 2328 
Q 3016 3291 2770 3770 
Q 2525 4250 2034 4250 
z
M 2034 4750 
Q 2819 4750 3233 4129 
Q 3647 3509 3647 2328 
Q 3647 1150 3233 529 
Q 2819 -91 2034 -91 
Q 1250 -91 836 529 
Q 422 1150 422 2328 
Q 422 3509 836 4129 
Q 1250 4750 2034 4750 
z
" id="DejaVuSans-30" transform="scale(0.015625)"/>
       </defs>
       <use xlink:href="#DejaVuSans-31"/>
       <use x="63.623047" xlink:href="#DejaVuSans-30"/>
      </g>
     </g>
    </g>
    <g id="xtick_4">
     <g id="line2d_4">
      <g>
       <use style="stroke:#000000;stroke-width:0.8;" x="449.897217" xlink:href="#m40a3170fa9" y="411.95625"/>
      </g>
     </g>
     <g id="text_4">
      <!-- 12 -->
      <g transform="translate(437.172217 434.153125)scale(0.2 -0.2)">
       <defs>
        <path d="M 1228 531 
L 3431 531 
L 3431 0 
L 469 0 
L 469 531 
Q 828 903 1448 1529 
Q 2069 2156 2228 2338 
Q 2531 2678 2651 2914 
Q 2772 3150 2772 3378 
Q 2772 3750 2511 3984 
Q 2250 4219 1831 4219 
Q 1534 4219 1204 4116 
Q 875 4013 500 3803 
L 500 4441 
Q 881 4594 1212 4672 
Q 1544 4750 1819 4750 
Q 2544 4750 2975 4387 
Q 3406 4025 3406 3419 
Q 3406 3131 3298 2873 
Q 3191 2616 2906 2266 
Q 2828 2175 2409 1742 
Q 1991 1309 1228 531 
z
" id="DejaVuSans-32" transform="scale(0.015625)"/>
       </defs>
       <use xlink:href="#DejaVuSans-31"/>
       <use x="63.623047" xlink:href="#DejaVuSans-32"/>
      </g>
     </g>
    </g>
    <g id="text_5">
     <!-- Protein observed -->
     <g transform="translate(206.691477 457.509375)scale(0.2 -0.2)">
      <defs>
       <path d="M 1259 4147 
L 1259 2394 
L 2053 2394 
Q 2494 2394 2734 2622 
Q 2975 2850 2975 3272 
Q 2975 3691 2734 3919 
Q 2494 4147 2053 4147 
L 1259 4147 
z
M 628 4666 
L 2053 4666 
Q 2838 4666 3239 4311 
Q 3641 3956 3641 3272 
Q 3641 2581 3239 2228 
Q 2838 1875 2053 1875 
L 1259 1875 
L 1259 0 
L 628 0 
L 628 4666 
z
" id="DejaVuSans-50" transform="scale(0.015625)"/>
       <path d="M 2631 2963 
Q 2534 3019 2420 3045 
Q 2306 3072 2169 3072 
Q 1681 3072 1420 2755 
Q 1159 2438 1159 1844 
L 1159 0 
L 581 0 
L 581 3500 
L 1159 3500 
L 1159 2956 
Q 1341 3275 1631 3429 
Q 1922 3584 2338 3584 
Q 2397 3584 2469 3576 
Q 2541 3569 2628 3553 
L 2631 2963 
z
" id="DejaVuSans-72" transform="scale(0.015625)"/>
       <path d="M 1959 3097 
Q 1497 3097 1228 2736 
Q 959 2375 959 1747 
Q 959 1119 1226 758 
Q 1494 397 1959 397 
Q 2419 397 2687 759 
Q 2956 1122 2956 1747 
Q 2956 2369 2687 2733 
Q 2419 3097 1959 3097 
z
M 1959 3584 
Q 2709 3584 3137 3096 
Q 3566 2609 3566 1747 
Q 3566 888 3137 398 
Q 2709 -91 1959 -91 
Q 1206 -91 779 398 
Q 353 888 353 1747 
Q 353 2609 779 3096 
Q 1206 3584 1959 3584 
z
" id="DejaVuSans-6f" transform="scale(0.015625)"/>
       <path d="M 1172 4494 
L 1172 3500 
L 2356 3500 
L 2356 3053 
L 1172 3053 
L 1172 1153 
Q 1172 725 1289 603 
Q 1406 481 1766 481 
L 2356 481 
L 2356 0 
L 1766 0 
Q 1100 0 847 248 
Q 594 497 594 1153 
L 594 3053 
L 172 3053 
L 172 3500 
L 594 3500 
L 594 4494 
L 1172 4494 
z
" id="DejaVuSans-74" transform="scale(0.015625)"/>
       <path d="M 3597 1894 
L 3597 1613 
L 953 1613 
Q 991 1019 1311 708 
Q 1631 397 2203 397 
Q 2534 397 2845 478 
Q 3156 559 3463 722 
L 3463 178 
Q 3153 47 2828 -22 
Q 2503 -91 2169 -91 
Q 1331 -91 842 396 
Q 353 884 353 1716 
Q 353 2575 817 3079 
Q 1281 3584 2069 3584 
Q 2775 3584 3186 3129 
Q 3597 2675 3597 1894 
z
M 3022 2063 
Q 3016 2534 2758 2815 
Q 2500 3097 2075 3097 
Q 1594 3097 1305 2825 
Q 1016 2553 972 2059 
L 3022 2063 
z
" id="DejaVuSans-65" transform="scale(0.015625)"/>
       <path d="M 603 3500 
L 1178 3500 
L 1178 0 
L 603 0 
L 603 3500 
z
M 603 4863 
L 1178 4863 
L 1178 4134 
L 603 4134 
L 603 4863 
z
" id="DejaVuSans-69" transform="scale(0.015625)"/>
       <path d="M 3513 2113 
L 3513 0 
L 2938 0 
L 2938 2094 
Q 2938 2591 2744 2837 
Q 2550 3084 2163 3084 
Q 1697 3084 1428 2787 
Q 1159 2491 1159 1978 
L 1159 0 
L 581 0 
L 581 3500 
L 1159 3500 
L 1159 2956 
Q 1366 3272 1645 3428 
Q 1925 3584 2291 3584 
Q 2894 3584 3203 3211 
Q 3513 2838 3513 2113 
z
" id="DejaVuSans-6e" transform="scale(0.015625)"/>
       <path id="DejaVuSans-20" transform="scale(0.015625)"/>
       <path d="M 3116 1747 
Q 3116 2381 2855 2742 
Q 2594 3103 2138 3103 
Q 1681 3103 1420 2742 
Q 1159 2381 1159 1747 
Q 1159 1113 1420 752 
Q 1681 391 2138 391 
Q 2594 391 2855 752 
Q 3116 1113 3116 1747 
z
M 1159 2969 
Q 1341 3281 1617 3432 
Q 1894 3584 2278 3584 
Q 2916 3584 3314 3078 
Q 3713 2572 3713 1747 
Q 3713 922 3314 415 
Q 2916 -91 2278 -91 
Q 1894 -91 1617 61 
Q 1341 213 1159 525 
L 1159 0 
L 581 0 
L 581 4863 
L 1159 4863 
L 1159 2969 
z
" id="DejaVuSans-62" transform="scale(0.015625)"/>
       <path d="M 2834 3397 
L 2834 2853 
Q 2591 2978 2328 3040 
Q 2066 3103 1784 3103 
Q 1356 3103 1142 2972 
Q 928 2841 928 2578 
Q 928 2378 1081 2264 
Q 1234 2150 1697 2047 
L 1894 2003 
Q 2506 1872 2764 1633 
Q 3022 1394 3022 966 
Q 3022 478 2636 193 
Q 2250 -91 1575 -91 
Q 1294 -91 989 -36 
Q 684 19 347 128 
L 347 722 
Q 666 556 975 473 
Q 1284 391 1588 391 
Q 1994 391 2212 530 
Q 2431 669 2431 922 
Q 2431 1156 2273 1281 
Q 2116 1406 1581 1522 
L 1381 1569 
Q 847 1681 609 1914 
Q 372 2147 372 2553 
Q 372 3047 722 3315 
Q 1072 3584 1716 3584 
Q 2034 3584 2315 3537 
Q 2597 3491 2834 3397 
z
" id="DejaVuSans-73" transform="scale(0.015625)"/>
       <path d="M 191 3500 
L 800 3500 
L 1894 563 
L 2988 3500 
L 3597 3500 
L 2284 0 
L 1503 0 
L 191 3500 
z
" id="DejaVuSans-76" transform="scale(0.015625)"/>
       <path d="M 2906 2969 
L 2906 4863 
L 3481 4863 
L 3481 0 
L 2906 0 
L 2906 525 
Q 2725 213 2448 61 
Q 2172 -91 1784 -91 
Q 1150 -91 751 415 
Q 353 922 353 1747 
Q 353 2572 751 3078 
Q 1150 3584 1784 3584 
Q 2172 3584 2448 3432 
Q 2725 3281 2906 2969 
z
M 947 1747 
Q 947 1113 1208 752 
Q 1469 391 1925 391 
Q 2381 391 2643 752 
Q 2906 1113 2906 1747 
Q 2906 2381 2643 2742 
Q 2381 3103 1925 3103 
Q 1469 3103 1208 2742 
Q 947 2381 947 1747 
z
" id="DejaVuSans-64" transform="scale(0.015625)"/>
      </defs>
      <use xlink:href="#DejaVuSans-50"/>
      <use x="58.552734" xlink:href="#DejaVuSans-72"/>
      <use x="97.416016" xlink:href="#DejaVuSans-6f"/>
      <use x="158.597656" xlink:href="#DejaVuSans-74"/>
      <use x="197.806641" xlink:href="#DejaVuSans-65"/>
      <use x="259.330078" xlink:href="#DejaVuSans-69"/>
      <use x="287.113281" xlink:href="#DejaVuSans-6e"/>
      <use x="350.492188" xlink:href="#DejaVuSans-20"/>
      <use x="382.279297" xlink:href="#DejaVuSans-6f"/>
      <use x="443.460938" xlink:href="#DejaVuSans-62"/>
      <use x="506.9375" xlink:href="#DejaVuSans-73"/>
      <use x="559.037109" xlink:href="#DejaVuSans-65"/>
      <use x="620.560547" xlink:href="#DejaVuSans-72"/>
      <use x="661.673828" xlink:href="#DejaVuSans-76"/>
      <use x="720.853516" xlink:href="#DejaVuSans-65"/>
      <use x="782.376953" xlink:href="#DejaVuSans-64"/>
     </g>
    </g>
   </g>
   <g id="matplotlib.axis_2">
    <g id="ytick_1">
     <g id="line2d_5">
      <defs>
       <path d="M 0 0 
L -3.5 0 
" id="m809fa11226" style="stroke:#000000;stroke-width:0.8;"/>
      </defs>
      <g>
       <use style="stroke:#000000;stroke-width:0.8;" x="63.00625" xlink:href="#m809fa11226" y="376.010139"/>
      </g>
     </g>
     <g id="text_6">
      <!-- 6 -->
      <g transform="translate(43.28125 383.608576)scale(0.2 -0.2)">
       <use xlink:href="#DejaVuSans-36"/>
      </g>
     </g>
    </g>
    <g id="ytick_2">
     <g id="line2d_6">
      <g>
       <use style="stroke:#000000;stroke-width:0.8;" x="63.00625" xlink:href="#m809fa11226" y="323.924648"/>
      </g>
     </g>
     <g id="text_7">
      <!-- 7 -->
      <g transform="translate(43.28125 331.523085)scale(0.2 -0.2)">
       <defs>
        <path d="M 525 4666 
L 3525 4666 
L 3525 4397 
L 1831 0 
L 1172 0 
L 2766 4134 
L 525 4134 
L 525 4666 
z
" id="DejaVuSans-37" transform="scale(0.015625)"/>
       </defs>
       <use xlink:href="#DejaVuSans-37"/>
      </g>
     </g>
    </g>
    <g id="ytick_3">
     <g id="line2d_7">
      <g>
       <use style="stroke:#000000;stroke-width:0.8;" x="63.00625" xlink:href="#m809fa11226" y="271.839156"/>
      </g>
     </g>
     <g id="text_8">
      <!-- 8 -->
      <g transform="translate(43.28125 279.437594)scale(0.2 -0.2)">
       <use xlink:href="#DejaVuSans-38"/>
      </g>
     </g>
    </g>
    <g id="ytick_4">
     <g id="line2d_8">
      <g>
       <use style="stroke:#000000;stroke-width:0.8;" x="63.00625" xlink:href="#m809fa11226" y="219.753665"/>
      </g>
     </g>
     <g id="text_9">
      <!-- 9 -->
      <g transform="translate(43.28125 227.352103)scale(0.2 -0.2)">
       <defs>
        <path d="M 703 97 
L 703 672 
Q 941 559 1184 500 
Q 1428 441 1663 441 
Q 2288 441 2617 861 
Q 2947 1281 2994 2138 
Q 2813 1869 2534 1725 
Q 2256 1581 1919 1581 
Q 1219 1581 811 2004 
Q 403 2428 403 3163 
Q 403 3881 828 4315 
Q 1253 4750 1959 4750 
Q 2769 4750 3195 4129 
Q 3622 3509 3622 2328 
Q 3622 1225 3098 567 
Q 2575 -91 1691 -91 
Q 1453 -91 1209 -44 
Q 966 3 703 97 
z
M 1959 2075 
Q 2384 2075 2632 2365 
Q 2881 2656 2881 3163 
Q 2881 3666 2632 3958 
Q 2384 4250 1959 4250 
Q 1534 4250 1286 3958 
Q 1038 3666 1038 3163 
Q 1038 2656 1286 2365 
Q 1534 2075 1959 2075 
z
" id="DejaVuSans-39" transform="scale(0.015625)"/>
       </defs>
       <use xlink:href="#DejaVuSans-39"/>
      </g>
     </g>
    </g>
    <g id="ytick_5">
     <g id="line2d_9">
      <g>
       <use style="stroke:#000000;stroke-width:0.8;" x="63.00625" xlink:href="#m809fa11226" y="167.668174"/>
      </g>
     </g>
     <g id="text_10">
      <!-- 10 -->
      <g transform="translate(30.55625 175.266611)scale(0.2 -0.2)">
       <use xlink:href="#DejaVuSans-31"/>
       <use x="63.623047" xlink:href="#DejaVuSans-30"/>
      </g>
     </g>
    </g>
    <g id="ytick_6">
     <g id="line2d_10">
      <g>
       <use style="stroke:#000000;stroke-width:0.8;" x="63.00625" xlink:href="#m809fa11226" y="115.582683"/>
      </g>
     </g>
     <g id="text_11">
      <!-- 11 -->
      <g transform="translate(30.55625 123.18112)scale(0.2 -0.2)">
       <use xlink:href="#DejaVuSans-31"/>
       <use x="63.623047" xlink:href="#DejaVuSans-31"/>
      </g>
     </g>
    </g>
    <g id="ytick_7">
     <g id="line2d_11">
      <g>
       <use style="stroke:#000000;stroke-width:0.8;" x="63.00625" xlink:href="#m809fa11226" y="63.497191"/>
      </g>
     </g>
     <g id="text_12">
      <!-- 12 -->
      <g transform="translate(30.55625 71.095629)scale(0.2 -0.2)">
       <use xlink:href="#DejaVuSans-31"/>
       <use x="63.623047" xlink:href="#DejaVuSans-32"/>
      </g>
     </g>
    </g>
    <g id="text_13">
     <!-- Protein predicted -->
     <g transform="translate(22.396875 307.357187)rotate(-90)scale(0.2 -0.2)">
      <defs>
       <path d="M 1159 525 
L 1159 -1331 
L 581 -1331 
L 581 3500 
L 1159 3500 
L 1159 2969 
Q 1341 3281 1617 3432 
Q 1894 3584 2278 3584 
Q 2916 3584 3314 3078 
Q 3713 2572 3713 1747 
Q 3713 922 3314 415 
Q 2916 -91 2278 -91 
Q 1894 -91 1617 61 
Q 1341 213 1159 525 
z
M 3116 1747 
Q 3116 2381 2855 2742 
Q 2594 3103 2138 3103 
Q 1681 3103 1420 2742 
Q 1159 2381 1159 1747 
Q 1159 1113 1420 752 
Q 1681 391 2138 391 
Q 2594 391 2855 752 
Q 3116 1113 3116 1747 
z
" id="DejaVuSans-70" transform="scale(0.015625)"/>
       <path d="M 3122 3366 
L 3122 2828 
Q 2878 2963 2633 3030 
Q 2388 3097 2138 3097 
Q 1578 3097 1268 2742 
Q 959 2388 959 1747 
Q 959 1106 1268 751 
Q 1578 397 2138 397 
Q 2388 397 2633 464 
Q 2878 531 3122 666 
L 3122 134 
Q 2881 22 2623 -34 
Q 2366 -91 2075 -91 
Q 1284 -91 818 406 
Q 353 903 353 1747 
Q 353 2603 823 3093 
Q 1294 3584 2113 3584 
Q 2378 3584 2631 3529 
Q 2884 3475 3122 3366 
z
" id="DejaVuSans-63" transform="scale(0.015625)"/>
      </defs>
      <use xlink:href="#DejaVuSans-50"/>
      <use x="58.552734" xlink:href="#DejaVuSans-72"/>
      <use x="97.416016" xlink:href="#DejaVuSans-6f"/>
      <use x="158.597656" xlink:href="#DejaVuSans-74"/>
      <use x="197.806641" xlink:href="#DejaVuSans-65"/>
      <use x="259.330078" xlink:href="#DejaVuSans-69"/>
      <use x="287.113281" xlink:href="#DejaVuSans-6e"/>
      <use x="350.492188" xlink:href="#DejaVuSans-20"/>
      <use x="382.279297" xlink:href="#DejaVuSans-70"/>
      <use x="445.755859" xlink:href="#DejaVuSans-72"/>
      <use x="484.619141" xlink:href="#DejaVuSans-65"/>
      <use x="546.142578" xlink:href="#DejaVuSans-64"/>
      <use x="609.619141" xlink:href="#DejaVuSans-69"/>
      <use x="637.402344" xlink:href="#DejaVuSans-63"/>
      <use x="692.382812" xlink:href="#DejaVuSans-74"/>
      <use x="731.591797" xlink:href="#DejaVuSans-65"/>
      <use x="793.115234" xlink:href="#DejaVuSans-64"/>
     </g>
    </g>
   </g>
   <g id="line2d_12">
    <path clip-path="url(#p1a32eeedee)" d="M 63.00625 411.95625 
L 519.551705 31.43625 
" style="fill:none;stroke:#000000;stroke-linecap:square;stroke-width:1.5;"/>
   </g>
   <g id="patch_3">
    <path d="M 63.00625 411.95625 
L 63.00625 31.43625 
" style="fill:none;stroke:#000000;stroke-linecap:square;stroke-linejoin:miter;stroke-width:0.8;"/>
   </g>
   <g id="patch_4">
    <path d="M 519.551705 411.95625 
L 519.551705 31.43625 
" style="fill:none;stroke:#000000;stroke-linecap:square;stroke-linejoin:miter;stroke-width:0.8;"/>
   </g>
   <g id="patch_5">
    <path d="M 63.00625 411.95625 
L 519.551705 411.95625 
" style="fill:none;stroke:#000000;stroke-linecap:square;stroke-linejoin:miter;stroke-width:0.8;"/>
   </g>
   <g id="patch_6">
    <path d="M 63.00625 31.43625 
L 519.551705 31.43625 
" style="fill:none;stroke:#000000;stroke-linecap:square;stroke-linejoin:miter;stroke-width:0.8;"/>
   </g>
   <g id="text_14">
    <!-- Nvar: 10  -->
    <g transform="translate(360.00306 331.218889)scale(0.2 -0.2)">
     <defs>
      <path d="M 628 4666 
L 1478 4666 
L 3547 763 
L 3547 4666 
L 4159 4666 
L 4159 0 
L 3309 0 
L 1241 3903 
L 1241 0 
L 628 0 
L 628 4666 
z
" id="DejaVuSans-4e" transform="scale(0.015625)"/>
      <path d="M 2194 1759 
Q 1497 1759 1228 1600 
Q 959 1441 959 1056 
Q 959 750 1161 570 
Q 1363 391 1709 391 
Q 2188 391 2477 730 
Q 2766 1069 2766 1631 
L 2766 1759 
L 2194 1759 
z
M 3341 1997 
L 3341 0 
L 2766 0 
L 2766 531 
Q 2569 213 2275 61 
Q 1981 -91 1556 -91 
Q 1019 -91 701 211 
Q 384 513 384 1019 
Q 384 1609 779 1909 
Q 1175 2209 1959 2209 
L 2766 2209 
L 2766 2266 
Q 2766 2663 2505 2880 
Q 2244 3097 1772 3097 
Q 1472 3097 1187 3025 
Q 903 2953 641 2809 
L 641 3341 
Q 956 3463 1253 3523 
Q 1550 3584 1831 3584 
Q 2591 3584 2966 3190 
Q 3341 2797 3341 1997 
z
" id="DejaVuSans-61" transform="scale(0.015625)"/>
      <path d="M 750 794 
L 1409 794 
L 1409 0 
L 750 0 
L 750 794 
z
M 750 3309 
L 1409 3309 
L 1409 2516 
L 750 2516 
L 750 3309 
z
" id="DejaVuSans-3a" transform="scale(0.015625)"/>
     </defs>
     <use xlink:href="#DejaVuSans-4e"/>
     <use x="74.804688" xlink:href="#DejaVuSans-76"/>
     <use x="133.984375" xlink:href="#DejaVuSans-61"/>
     <use x="195.263672" xlink:href="#DejaVuSans-72"/>
     <use x="234.626953" xlink:href="#DejaVuSans-3a"/>
     <use x="268.318359" xlink:href="#DejaVuSans-20"/>
     <use x="300.105469" xlink:href="#DejaVuSans-31"/>
     <use x="363.728516" xlink:href="#DejaVuSans-30"/>
     <use x="427.351562" xlink:href="#DejaVuSans-20"/>
    </g>
    <!-- RMSEP: 0.39  -->
    <g transform="translate(360.00306 353.614514)scale(0.2 -0.2)">
     <defs>
      <path d="M 2841 2188 
Q 3044 2119 3236 1894 
Q 3428 1669 3622 1275 
L 4263 0 
L 3584 0 
L 2988 1197 
Q 2756 1666 2539 1819 
Q 2322 1972 1947 1972 
L 1259 1972 
L 1259 0 
L 628 0 
L 628 4666 
L 2053 4666 
Q 2853 4666 3247 4331 
Q 3641 3997 3641 3322 
Q 3641 2881 3436 2590 
Q 3231 2300 2841 2188 
z
M 1259 4147 
L 1259 2491 
L 2053 2491 
Q 2509 2491 2742 2702 
Q 2975 2913 2975 3322 
Q 2975 3731 2742 3939 
Q 2509 4147 2053 4147 
L 1259 4147 
z
" id="DejaVuSans-52" transform="scale(0.015625)"/>
      <path d="M 628 4666 
L 1569 4666 
L 2759 1491 
L 3956 4666 
L 4897 4666 
L 4897 0 
L 4281 0 
L 4281 4097 
L 3078 897 
L 2444 897 
L 1241 4097 
L 1241 0 
L 628 0 
L 628 4666 
z
" id="DejaVuSans-4d" transform="scale(0.015625)"/>
      <path d="M 3425 4513 
L 3425 3897 
Q 3066 4069 2747 4153 
Q 2428 4238 2131 4238 
Q 1616 4238 1336 4038 
Q 1056 3838 1056 3469 
Q 1056 3159 1242 3001 
Q 1428 2844 1947 2747 
L 2328 2669 
Q 3034 2534 3370 2195 
Q 3706 1856 3706 1288 
Q 3706 609 3251 259 
Q 2797 -91 1919 -91 
Q 1588 -91 1214 -16 
Q 841 59 441 206 
L 441 856 
Q 825 641 1194 531 
Q 1563 422 1919 422 
Q 2459 422 2753 634 
Q 3047 847 3047 1241 
Q 3047 1584 2836 1778 
Q 2625 1972 2144 2069 
L 1759 2144 
Q 1053 2284 737 2584 
Q 422 2884 422 3419 
Q 422 4038 858 4394 
Q 1294 4750 2059 4750 
Q 2388 4750 2728 4690 
Q 3069 4631 3425 4513 
z
" id="DejaVuSans-53" transform="scale(0.015625)"/>
      <path d="M 628 4666 
L 3578 4666 
L 3578 4134 
L 1259 4134 
L 1259 2753 
L 3481 2753 
L 3481 2222 
L 1259 2222 
L 1259 531 
L 3634 531 
L 3634 0 
L 628 0 
L 628 4666 
z
" id="DejaVuSans-45" transform="scale(0.015625)"/>
      <path d="M 684 794 
L 1344 794 
L 1344 0 
L 684 0 
L 684 794 
z
" id="DejaVuSans-2e" transform="scale(0.015625)"/>
      <path d="M 2597 2516 
Q 3050 2419 3304 2112 
Q 3559 1806 3559 1356 
Q 3559 666 3084 287 
Q 2609 -91 1734 -91 
Q 1441 -91 1130 -33 
Q 819 25 488 141 
L 488 750 
Q 750 597 1062 519 
Q 1375 441 1716 441 
Q 2309 441 2620 675 
Q 2931 909 2931 1356 
Q 2931 1769 2642 2001 
Q 2353 2234 1838 2234 
L 1294 2234 
L 1294 2753 
L 1863 2753 
Q 2328 2753 2575 2939 
Q 2822 3125 2822 3475 
Q 2822 3834 2567 4026 
Q 2313 4219 1838 4219 
Q 1578 4219 1281 4162 
Q 984 4106 628 3988 
L 628 4550 
Q 988 4650 1302 4700 
Q 1616 4750 1894 4750 
Q 2613 4750 3031 4423 
Q 3450 4097 3450 3541 
Q 3450 3153 3228 2886 
Q 3006 2619 2597 2516 
z
" id="DejaVuSans-33" transform="scale(0.015625)"/>
     </defs>
     <use xlink:href="#DejaVuSans-52"/>
     <use x="69.482422" xlink:href="#DejaVuSans-4d"/>
     <use x="155.761719" xlink:href="#DejaVuSans-53"/>
     <use x="219.238281" xlink:href="#DejaVuSans-45"/>
     <use x="282.421875" xlink:href="#DejaVuSans-50"/>
     <use x="342.724609" xlink:href="#DejaVuSans-3a"/>
     <use x="376.416016" xlink:href="#DejaVuSans-20"/>
     <use x="408.203125" xlink:href="#DejaVuSans-30"/>
     <use x="471.826172" xlink:href="#DejaVuSans-2e"/>
     <use x="503.613281" xlink:href="#DejaVuSans-33"/>
     <use x="567.236328" xlink:href="#DejaVuSans-39"/>
     <use x="630.859375" xlink:href="#DejaVuSans-20"/>
    </g>
    <!-- $r^2$: 0.93 -->
    <g transform="translate(360.00306 376.010139)scale(0.2 -0.2)">
     <defs>
      <path d="M 2853 2969 
Q 2766 3016 2653 3041 
Q 2541 3066 2413 3066 
Q 1953 3066 1609 2717 
Q 1266 2369 1153 1784 
L 800 0 
L 225 0 
L 909 3500 
L 1484 3500 
L 1375 2956 
Q 1603 3259 1920 3421 
Q 2238 3584 2597 3584 
Q 2691 3584 2781 3573 
Q 2872 3563 2963 3538 
L 2853 2969 
z
" id="DejaVuSans-Oblique-72" transform="scale(0.015625)"/>
     </defs>
     <use transform="translate(0 0.765625)" xlink:href="#DejaVuSans-Oblique-72"/>
     <use transform="translate(45.763177 39.046875)scale(0.7)" xlink:href="#DejaVuSans-32"/>
     <use transform="translate(93.033685 0.765625)" xlink:href="#DejaVuSans-3a"/>
     <use transform="translate(126.725091 0.765625)" xlink:href="#DejaVuSans-20"/>
     <use transform="translate(158.512201 0.765625)" xlink:href="#DejaVuSans-30"/>
     <use transform="translate(222.135247 0.765625)" xlink:href="#DejaVuSans-2e"/>
     <use transform="translate(253.922357 0.765625)" xlink:href="#DejaVuSans-39"/>
     <use transform="translate(317.545404 0.765625)" xlink:href="#DejaVuSans-33"/>
    </g>
   </g>
   <g id="text_15">
    <!-- Covsel applied on Rice kernel -->
    <g transform="translate(114.427102 25.43625)scale(0.24 -0.24)">
     <defs>
      <path d="M 4122 4306 
L 4122 3641 
Q 3803 3938 3442 4084 
Q 3081 4231 2675 4231 
Q 1875 4231 1450 3742 
Q 1025 3253 1025 2328 
Q 1025 1406 1450 917 
Q 1875 428 2675 428 
Q 3081 428 3442 575 
Q 3803 722 4122 1019 
L 4122 359 
Q 3791 134 3420 21 
Q 3050 -91 2638 -91 
Q 1578 -91 968 557 
Q 359 1206 359 2328 
Q 359 3453 968 4101 
Q 1578 4750 2638 4750 
Q 3056 4750 3426 4639 
Q 3797 4528 4122 4306 
z
" id="DejaVuSans-43" transform="scale(0.015625)"/>
      <path d="M 603 4863 
L 1178 4863 
L 1178 0 
L 603 0 
L 603 4863 
z
" id="DejaVuSans-6c" transform="scale(0.015625)"/>
      <path d="M 581 4863 
L 1159 4863 
L 1159 1991 
L 2875 3500 
L 3609 3500 
L 1753 1863 
L 3688 0 
L 2938 0 
L 1159 1709 
L 1159 0 
L 581 0 
L 581 4863 
z
" id="DejaVuSans-6b" transform="scale(0.015625)"/>
     </defs>
     <use xlink:href="#DejaVuSans-43"/>
     <use x="69.824219" xlink:href="#DejaVuSans-6f"/>
     <use x="131.005859" xlink:href="#DejaVuSans-76"/>
     <use x="190.185547" xlink:href="#DejaVuSans-73"/>
     <use x="242.285156" xlink:href="#DejaVuSans-65"/>
     <use x="303.808594" xlink:href="#DejaVuSans-6c"/>
     <use x="331.591797" xlink:href="#DejaVuSans-20"/>
     <use x="363.378906" xlink:href="#DejaVuSans-61"/>
     <use x="424.658203" xlink:href="#DejaVuSans-70"/>
     <use x="488.134766" xlink:href="#DejaVuSans-70"/>
     <use x="551.611328" xlink:href="#DejaVuSans-6c"/>
     <use x="579.394531" xlink:href="#DejaVuSans-69"/>
     <use x="607.177734" xlink:href="#DejaVuSans-65"/>
     <use x="668.701172" xlink:href="#DejaVuSans-64"/>
     <use x="732.177734" xlink:href="#DejaVuSans-20"/>
     <use x="763.964844" xlink:href="#DejaVuSans-6f"/>
     <use x="825.146484" xlink:href="#DejaVuSans-6e"/>
     <use x="888.525391" xlink:href="#DejaVuSans-20"/>
     <use x="920.3125" xlink:href="#DejaVuSans-52"/>
     <use x="989.794922" xlink:href="#DejaVuSans-69"/>
     <use x="1017.578125" xlink:href="#DejaVuSans-63"/>
     <use x="1072.558594" xlink:href="#DejaVuSans-65"/>
     <use x="1134.082031" xlink:href="#DejaVuSans-20"/>
     <use x="1165.869141" xlink:href="#DejaVuSans-6b"/>
     <use x="1220.154297" xlink:href="#DejaVuSans-65"/>
     <use x="1281.677734" xlink:href="#DejaVuSans-72"/>
     <use x="1321.041016" xlink:href="#DejaVuSans-6e"/>
     <use x="1384.419922" xlink:href="#DejaVuSans-65"/>
     <use x="1445.943359" xlink:href="#DejaVuSans-6c"/>
    </g>
   </g>
  </g>
  <g id="axes_2">
   <g id="patch_7">
    <path d="M 610.860795 411.95625 
L 1067.40625 411.95625 
L 1067.40625 31.43625 
L 610.860795 31.43625 
z
" style="fill:#ffffff;"/>
   </g>
   <g id="PathCollection_2">
    <g clip-path="url(#pc500408c83)">
     <use style="fill:#1f77b4;stroke:#1f77b4;" x="823.414553" xlink:href="#m4d88c1238a" y="304.778133"/>
     <use style="fill:#1f77b4;stroke:#1f77b4;" x="856.469773" xlink:href="#m4d88c1238a" y="302.465985"/>
     <use style="fill:#1f77b4;stroke:#1f77b4;" x="875.794617" xlink:href="#m4d88c1238a" y="319.100755"/>
     <use style="fill:#1f77b4;stroke:#1f77b4;" x="742.242506" xlink:href="#m4d88c1238a" y="376.020755"/>
     <use style="fill:#1f77b4;stroke:#1f77b4;" x="768.757094" xlink:href="#m4d88c1238a" y="335.512523"/>
     <use style="fill:#1f77b4;stroke:#1f77b4;" x="801.157701" xlink:href="#m4d88c1238a" y="338.700058"/>
     <use style="fill:#1f77b4;stroke:#1f77b4;" x="896.09313" xlink:href="#m4d88c1238a" y="294.280904"/>
     <use style="fill:#1f77b4;stroke:#1f77b4;" x="877.444902" xlink:href="#m4d88c1238a" y="267.069303"/>
     <use style="fill:#1f77b4;stroke:#1f77b4;" x="843.052951" xlink:href="#m4d88c1238a" y="339.888437"/>
     <use style="fill:#1f77b4;stroke:#1f77b4;" x="785.446982" xlink:href="#m4d88c1238a" y="367.861463"/>
     <use style="fill:#1f77b4;stroke:#1f77b4;" x="850.253697" xlink:href="#m4d88c1238a" y="318.980351"/>
     <use style="fill:#1f77b4;stroke:#1f77b4;" x="837.816045" xlink:href="#m4d88c1238a" y="329.171173"/>
     <use style="fill:#1f77b4;stroke:#1f77b4;" x="796.575408" xlink:href="#m4d88c1238a" y="306.184466"/>
     <use style="fill:#1f77b4;stroke:#1f77b4;" x="892.792558" xlink:href="#m4d88c1238a" y="298.34814"/>
     <use style="fill:#1f77b4;stroke:#1f77b4;" x="886.246426" xlink:href="#m4d88c1238a" y="295.843553"/>
     <use style="fill:#1f77b4;stroke:#1f77b4;" x="787.080765" xlink:href="#m4d88c1238a" y="331.518548"/>
     <use style="fill:#1f77b4;stroke:#1f77b4;" x="739.948609" xlink:href="#m4d88c1238a" y="356.954164"/>
     <use style="fill:#1f77b4;stroke:#1f77b4;" x="801.157701" xlink:href="#m4d88c1238a" y="327.090988"/>
     <use style="fill:#1f77b4;stroke:#1f77b4;" x="822.105326" xlink:href="#m4d88c1238a" y="325.516123"/>
     <use style="fill:#1f77b4;stroke:#1f77b4;" x="803.776154" xlink:href="#m4d88c1238a" y="348.830766"/>
     <use style="fill:#1f77b4;stroke:#1f77b4;" x="834.867535" xlink:href="#m4d88c1238a" y="312.926876"/>
     <use style="fill:#1f77b4;stroke:#1f77b4;" x="748.788639" xlink:href="#m4d88c1238a" y="344.553122"/>
     <use style="fill:#1f77b4;stroke:#1f77b4;" x="832.579139" xlink:href="#m4d88c1238a" y="315.855331"/>
     <use style="fill:#1f77b4;stroke:#1f77b4;" x="878.710121" xlink:href="#m4d88c1238a" y="294.160584"/>
     <use style="fill:#1f77b4;stroke:#1f77b4;" x="755.989385" xlink:href="#m4d88c1238a" y="338.199993"/>
     <use style="fill:#1f77b4;stroke:#1f77b4;" x="763.190131" xlink:href="#m4d88c1238a" y="378.424357"/>
     <use style="fill:#1f77b4;stroke:#1f77b4;" x="922.937775" xlink:href="#m4d88c1238a" y="296.726152"/>
     <use style="fill:#1f77b4;stroke:#1f77b4;" x="857.124386" xlink:href="#m4d88c1238a" y="280.353991"/>
     <use style="fill:#1f77b4;stroke:#1f77b4;" x="780.540133" xlink:href="#m4d88c1238a" y="342.028624"/>
     <use style="fill:#1f77b4;stroke:#1f77b4;" x="727.841014" xlink:href="#m4d88c1238a" y="378.256191"/>
     <use style="fill:#1f77b4;stroke:#1f77b4;" x="813.270797" xlink:href="#m4d88c1238a" y="309.752101"/>
     <use style="fill:#1f77b4;stroke:#1f77b4;" x="713.439522" xlink:href="#m4d88c1238a" y="351.153076"/>
     <use style="fill:#1f77b4;stroke:#1f77b4;" x="686.600377" xlink:href="#m4d88c1238a" y="368.789368"/>
     <use style="fill:#1f77b4;stroke:#1f77b4;" x="768.427037" xlink:href="#m4d88c1238a" y="351.05062"/>
     <use style="fill:#1f77b4;stroke:#1f77b4;" x="792.647728" xlink:href="#m4d88c1238a" y="353.639826"/>
     <use style="fill:#1f77b4;stroke:#1f77b4;" x="836.182262" xlink:href="#m4d88c1238a" y="306.542946"/>
     <use style="fill:#1f77b4;stroke:#1f77b4;" x="758.607838" xlink:href="#m4d88c1238a" y="320.868884"/>
     <use style="fill:#1f77b4;stroke:#1f77b4;" x="813.595353" xlink:href="#m4d88c1238a" y="317.743962"/>
     <use style="fill:#1f77b4;stroke:#1f77b4;" x="899.668748" xlink:href="#m4d88c1238a" y="296.439736"/>
     <use style="fill:#1f77b4;stroke:#1f77b4;" x="881.680635" xlink:href="#m4d88c1238a" y="280.1161"/>
     <use style="fill:#1f77b4;stroke:#1f77b4;" x="919.967261" xlink:href="#m4d88c1238a" y="251.734259"/>
     <use style="fill:#1f77b4;stroke:#1f77b4;" x="786.426152" xlink:href="#m4d88c1238a" y="328.506318"/>
     <use style="fill:#1f77b4;stroke:#1f77b4;" x="758.607838" xlink:href="#m4d88c1238a" y="339.635379"/>
     <use style="fill:#1f77b4;stroke:#1f77b4;" x="905.22471" xlink:href="#m4d88c1238a" y="277.60585"/>
     <use style="fill:#1f77b4;stroke:#1f77b4;" x="850.583754" xlink:href="#m4d88c1238a" y="304.597058"/>
     <use style="fill:#1f77b4;stroke:#1f77b4;" x="787.080765" xlink:href="#m4d88c1238a" y="303.428255"/>
     <use style="fill:#1f77b4;stroke:#1f77b4;" x="783.807699" xlink:href="#m4d88c1238a" y="313.276764"/>
     <use style="fill:#1f77b4;stroke:#1f77b4;" x="784.137756" xlink:href="#m4d88c1238a" y="320.050753"/>
     <use style="fill:#1f77b4;stroke:#1f77b4;" x="934.379755" xlink:href="#m4d88c1238a" y="270.033883"/>
     <use style="fill:#1f77b4;stroke:#1f77b4;" x="788.395493" xlink:href="#m4d88c1238a" y="322.936495"/>
     <use style="fill:#1f77b4;stroke:#1f77b4;" x="934.709812" xlink:href="#m4d88c1238a" y="269.579482"/>
     <use style="fill:#1f77b4;stroke:#1f77b4;" x="888.226768" xlink:href="#m4d88c1238a" y="350.648994"/>
     <use style="fill:#1f77b4;stroke:#1f77b4;" x="946.481849" xlink:href="#m4d88c1238a" y="259.952179"/>
     <use style="fill:#1f77b4;stroke:#1f77b4;" x="810.322287" xlink:href="#m4d88c1238a" y="323.436961"/>
     <use style="fill:#1f77b4;stroke:#1f77b4;" x="906.544938" xlink:href="#m4d88c1238a" y="259.676458"/>
     <use style="fill:#1f77b4;stroke:#1f77b4;" x="779.230907" xlink:href="#m4d88c1238a" y="314.153098"/>
     <use style="fill:#1f77b4;stroke:#1f77b4;" x="805.739994" xlink:href="#m4d88c1238a" y="330.596555"/>
     <use style="fill:#1f77b4;stroke:#1f77b4;" x="866.943585" xlink:href="#m4d88c1238a" y="311.178196"/>
     <use style="fill:#1f77b4;stroke:#1f77b4;" x="859.418283" xlink:href="#m4d88c1238a" y="302.640911"/>
     <use style="fill:#1f77b4;stroke:#1f77b4;" x="804.430767" xlink:href="#m4d88c1238a" y="333.173835"/>
     <use style="fill:#1f77b4;stroke:#1f77b4;" x="740.603222" xlink:href="#m4d88c1238a" y="363.039897"/>
     <use style="fill:#1f77b4;stroke:#1f77b4;" x="766.463197" xlink:href="#m4d88c1238a" y="344.390797"/>
     <use style="fill:#1f77b4;stroke:#1f77b4;" x="784.137756" xlink:href="#m4d88c1238a" y="345.360577"/>
     <use style="fill:#1f77b4;stroke:#1f77b4;" x="925.193165" xlink:href="#m4d88c1238a" y="288.594711"/>
     <use style="fill:#1f77b4;stroke:#1f77b4;" x="803.776154" xlink:href="#m4d88c1238a" y="341.0844"/>
     <use style="fill:#1f77b4;stroke:#1f77b4;" x="837.161431" xlink:href="#m4d88c1238a" y="319.989179"/>
     <use style="fill:#1f77b4;stroke:#1f77b4;" x="847.9598" xlink:href="#m4d88c1238a" y="313.349298"/>
     <use style="fill:#1f77b4;stroke:#1f77b4;" x="770.715433" xlink:href="#m4d88c1238a" y="352.746225"/>
     <use style="fill:#1f77b4;stroke:#1f77b4;" x="804.106211" xlink:href="#m4d88c1238a" y="300.226582"/>
     <use style="fill:#1f77b4;stroke:#1f77b4;" x="792.323172" xlink:href="#m4d88c1238a" y="378.15332"/>
     <use style="fill:#1f77b4;stroke:#1f77b4;" x="903.904481" xlink:href="#m4d88c1238a" y="296.629268"/>
     <use style="fill:#1f77b4;stroke:#1f77b4;" x="905.884824" xlink:href="#m4d88c1238a" y="272.808782"/>
     <use style="fill:#1f77b4;stroke:#1f77b4;" x="921.617546" xlink:href="#m4d88c1238a" y="302.220818"/>
     <use style="fill:#1f77b4;stroke:#1f77b4;" x="909.845509" xlink:href="#m4d88c1238a" y="260.967637"/>
     <use style="fill:#1f77b4;stroke:#1f77b4;" x="732.098751" xlink:href="#m4d88c1238a" y="394.659886"/>
     <use style="fill:#1f77b4;stroke:#1f77b4;" x="818.502203" xlink:href="#m4d88c1238a" y="335.807727"/>
     <use style="fill:#1f77b4;stroke:#1f77b4;" x="756.643998" xlink:href="#m4d88c1238a" y="337.54091"/>
     <use style="fill:#1f77b4;stroke:#1f77b4;" x="788.065435" xlink:href="#m4d88c1238a" y="328.886586"/>
     <use style="fill:#1f77b4;stroke:#1f77b4;" x="890.812216" xlink:href="#m4d88c1238a" y="301.864433"/>
     <use style="fill:#1f77b4;stroke:#1f77b4;" x="717.691757" xlink:href="#m4d88c1238a" y="385.930359"/>
     <use style="fill:#1f77b4;stroke:#1f77b4;" x="731.11408" xlink:href="#m4d88c1238a" y="335.931883"/>
     <use style="fill:#1f77b4;stroke:#1f77b4;" x="737.660213" xlink:href="#m4d88c1238a" y="384.852388"/>
     <use style="fill:#1f77b4;stroke:#1f77b4;" x="976.241999" xlink:href="#m4d88c1238a" y="226.938797"/>
     <use style="fill:#1f77b4;stroke:#1f77b4;" x="929.153851" xlink:href="#m4d88c1238a" y="284.653049"/>
     <use style="fill:#1f77b4;stroke:#1f77b4;" x="1046.324127" xlink:href="#m4d88c1238a" y="90.858539"/>
     <use style="fill:#1f77b4;stroke:#1f77b4;" x="1046.654184" xlink:href="#m4d88c1238a" y="134.32448"/>
     <use style="fill:#1f77b4;stroke:#1f77b4;" x="690.203501" xlink:href="#m4d88c1238a" y="320.486459"/>
     <use style="fill:#1f77b4;stroke:#1f77b4;" x="707.878059" xlink:href="#m4d88c1238a" y="213.800836"/>
     <use style="fill:#1f77b4;stroke:#1f77b4;" x="775.627783" xlink:href="#m4d88c1238a" y="212.828777"/>
     <use style="fill:#1f77b4;stroke:#1f77b4;" x="779.88552" xlink:href="#m4d88c1238a" y="211.707246"/>
     <use style="fill:#1f77b4;stroke:#1f77b4;" x="840.434498" xlink:href="#m4d88c1238a" y="186.508026"/>
     <use style="fill:#1f77b4;stroke:#1f77b4;" x="851.562924" xlink:href="#m4d88c1238a" y="334.694176"/>
     <use style="fill:#1f77b4;stroke:#1f77b4;" x="924.202994" xlink:href="#m4d88c1238a" y="164.477623"/>
     <use style="fill:#1f77b4;stroke:#1f77b4;" x="789.374662" xlink:href="#m4d88c1238a" y="290.884923"/>
     <use style="fill:#1f77b4;stroke:#1f77b4;" x="925.853279" xlink:href="#m4d88c1238a" y="172.259306"/>
     <use style="fill:#1f77b4;stroke:#1f77b4;" x="723.583277" xlink:href="#m4d88c1238a" y="304.037297"/>
     <use style="fill:#1f77b4;stroke:#1f77b4;" x="711.800238" xlink:href="#m4d88c1238a" y="385.581875"/>
     <use style="fill:#1f77b4;stroke:#1f77b4;" x="909.515452" xlink:href="#m4d88c1238a" y="282.736786"/>
     <use style="fill:#1f77b4;stroke:#1f77b4;" x="937.295259" xlink:href="#m4d88c1238a" y="234.745147"/>
     <use style="fill:#1f77b4;stroke:#1f77b4;" x="933.389584" xlink:href="#m4d88c1238a" y="239.820524"/>
     <use style="fill:#1f77b4;stroke:#1f77b4;" x="655.833553" xlink:href="#m4d88c1238a" y="297.67166"/>
     <use style="fill:#1f77b4;stroke:#1f77b4;" x="905.22471" xlink:href="#m4d88c1238a" y="280.853584"/>
     <use style="fill:#1f77b4;stroke:#1f77b4;" x="779.555463" xlink:href="#m4d88c1238a" y="301.628535"/>
     <use style="fill:#1f77b4;stroke:#1f77b4;" x="1029.601233" xlink:href="#m4d88c1238a" y="182.539026"/>
     <use style="fill:#1f77b4;stroke:#1f77b4;" x="749.773309" xlink:href="#m4d88c1238a" y="260.401685"/>
     <use style="fill:#1f77b4;stroke:#1f77b4;" x="729.15024" xlink:href="#m4d88c1238a" y="238.783445"/>
     <use style="fill:#1f77b4;stroke:#1f77b4;" x="895.433015" xlink:href="#m4d88c1238a" y="181.432071"/>
     <use style="fill:#1f77b4;stroke:#1f77b4;" x="784.462312" xlink:href="#m4d88c1238a" y="289.163196"/>
     <use style="fill:#1f77b4;stroke:#1f77b4;" x="743.551732" xlink:href="#m4d88c1238a" y="251.1897"/>
     <use style="fill:#1f77b4;stroke:#1f77b4;" x="830.285242" xlink:href="#m4d88c1238a" y="114.080543"/>
     <use style="fill:#1f77b4;stroke:#1f77b4;" x="631.612862" xlink:href="#m4d88c1238a" y="267.672467"/>
     <use style="fill:#1f77b4;stroke:#1f77b4;" x="1018.819367" xlink:href="#m4d88c1238a" y="209.616858"/>
     <use style="fill:#1f77b4;stroke:#1f77b4;" x="826.363063" xlink:href="#m4d88c1238a" y="246.247703"/>
     <use style="fill:#1f77b4;stroke:#1f77b4;" x="753.040875" xlink:href="#m4d88c1238a" y="264.170381"/>
     <use style="fill:#1f77b4;stroke:#1f77b4;" x="783.483143" xlink:href="#m4d88c1238a" y="293.438186"/>
     <use style="fill:#1f77b4;stroke:#1f77b4;" x="968.760705" xlink:href="#m4d88c1238a" y="48.732614"/>
     <use style="fill:#1f77b4;stroke:#1f77b4;" x="648.632807" xlink:href="#m4d88c1238a" y="287.653872"/>
     <use style="fill:#1f77b4;stroke:#1f77b4;" x="827.672289" xlink:href="#m4d88c1238a" y="275.502933"/>
     <use style="fill:#1f77b4;stroke:#1f77b4;" x="762.865575" xlink:href="#m4d88c1238a" y="265.365875"/>
     <use style="fill:#1f77b4;stroke:#1f77b4;" x="684.636537" xlink:href="#m4d88c1238a" y="255.171147"/>
     <use style="fill:#1f77b4;stroke:#1f77b4;" x="645.029683" xlink:href="#m4d88c1238a" y="259.011679"/>
     <use style="fill:#1f77b4;stroke:#1f77b4;" x="673.508111" xlink:href="#m4d88c1238a" y="272.763888"/>
     <use style="fill:#1f77b4;stroke:#1f77b4;" x="782.828529" xlink:href="#m4d88c1238a" y="302.264963"/>
     <use style="fill:#1f77b4;stroke:#1f77b4;" x="847.305187" xlink:href="#m4d88c1238a" y="230.206669"/>
     <use style="fill:#1f77b4;stroke:#1f77b4;" x="845.671404" xlink:href="#m4d88c1238a" y="273.185321"/>
     <use style="fill:#1f77b4;stroke:#1f77b4;" x="908.525281" xlink:href="#m4d88c1238a" y="226.502667"/>
     <use style="fill:#1f77b4;stroke:#1f77b4;" x="777.267067" xlink:href="#m4d88c1238a" y="230.74912"/>
     <use style="fill:#1f77b4;stroke:#1f77b4;" x="727.1864" xlink:href="#m4d88c1238a" y="265.346463"/>
     <use style="fill:#1f77b4;stroke:#1f77b4;" x="812.286127" xlink:href="#m4d88c1238a" y="201.230778"/>
     <use style="fill:#1f77b4;stroke:#1f77b4;" x="741.912449" xlink:href="#m4d88c1238a" y="337.812409"/>
     <use style="fill:#1f77b4;stroke:#1f77b4;" x="733.732533" xlink:href="#m4d88c1238a" y="259.181364"/>
     <use style="fill:#1f77b4;stroke:#1f77b4;" x="762.535518" xlink:href="#m4d88c1238a" y="214.341279"/>
     <use style="fill:#1f77b4;stroke:#1f77b4;" x="831.924525" xlink:href="#m4d88c1238a" y="264.891928"/>
     <use style="fill:#1f77b4;stroke:#1f77b4;" x="952.037811" xlink:href="#m4d88c1238a" y="175.80141"/>
     <use style="fill:#1f77b4;stroke:#1f77b4;" x="755.010215" xlink:href="#m4d88c1238a" y="234.372912"/>
     <use style="fill:#1f77b4;stroke:#1f77b4;" x="871.201322" xlink:href="#m4d88c1238a" y="243.581857"/>
     <use style="fill:#1f77b4;stroke:#1f77b4;" x="760.241621" xlink:href="#m4d88c1238a" y="267.014827"/>
     <use style="fill:#1f77b4;stroke:#1f77b4;" x="903.629434" xlink:href="#m4d88c1238a" y="163.212713"/>
     <use style="fill:#1f77b4;stroke:#1f77b4;" x="816.213807" xlink:href="#m4d88c1238a" y="186.567081"/>
     <use style="fill:#1f77b4;stroke:#1f77b4;" x="753.040875" xlink:href="#m4d88c1238a" y="199.93297"/>
    </g>
   </g>
   <g id="matplotlib.axis_3">
    <g id="xtick_5">
     <g id="line2d_13">
      <g>
       <use style="stroke:#000000;stroke-width:0.8;" x="654.656349" xlink:href="#m40a3170fa9" y="411.95625"/>
      </g>
     </g>
     <g id="text_16">
      <!-- 6 -->
      <g transform="translate(648.293849 434.153125)scale(0.2 -0.2)">
       <use xlink:href="#DejaVuSans-36"/>
      </g>
     </g>
    </g>
    <g id="xtick_6">
     <g id="line2d_14">
      <g>
       <use style="stroke:#000000;stroke-width:0.8;" x="764.675388" xlink:href="#m40a3170fa9" y="411.95625"/>
      </g>
     </g>
     <g id="text_17">
      <!-- 8 -->
      <g transform="translate(758.312888 434.153125)scale(0.2 -0.2)">
       <use xlink:href="#DejaVuSans-38"/>
      </g>
     </g>
    </g>
    <g id="xtick_7">
     <g id="line2d_15">
      <g>
       <use style="stroke:#000000;stroke-width:0.8;" x="874.694426" xlink:href="#m40a3170fa9" y="411.95625"/>
      </g>
     </g>
     <g id="text_18">
      <!-- 10 -->
      <g transform="translate(861.969426 434.153125)scale(0.2 -0.2)">
       <use xlink:href="#DejaVuSans-31"/>
       <use x="63.623047" xlink:href="#DejaVuSans-30"/>
      </g>
     </g>
    </g>
    <g id="xtick_8">
     <g id="line2d_16">
      <g>
       <use style="stroke:#000000;stroke-width:0.8;" x="984.713465" xlink:href="#m40a3170fa9" y="411.95625"/>
      </g>
     </g>
     <g id="text_19">
      <!-- 12 -->
      <g transform="translate(971.988465 434.153125)scale(0.2 -0.2)">
       <use xlink:href="#DejaVuSans-31"/>
       <use x="63.623047" xlink:href="#DejaVuSans-32"/>
      </g>
     </g>
    </g>
    <g id="text_20">
     <!-- Protein observed -->
     <g transform="translate(754.546023 457.509375)scale(0.2 -0.2)">
      <use xlink:href="#DejaVuSans-50"/>
      <use x="58.552734" xlink:href="#DejaVuSans-72"/>
      <use x="97.416016" xlink:href="#DejaVuSans-6f"/>
      <use x="158.597656" xlink:href="#DejaVuSans-74"/>
      <use x="197.806641" xlink:href="#DejaVuSans-65"/>
      <use x="259.330078" xlink:href="#DejaVuSans-69"/>
      <use x="287.113281" xlink:href="#DejaVuSans-6e"/>
      <use x="350.492188" xlink:href="#DejaVuSans-20"/>
      <use x="382.279297" xlink:href="#DejaVuSans-6f"/>
      <use x="443.460938" xlink:href="#DejaVuSans-62"/>
      <use x="506.9375" xlink:href="#DejaVuSans-73"/>
      <use x="559.037109" xlink:href="#DejaVuSans-65"/>
      <use x="620.560547" xlink:href="#DejaVuSans-72"/>
      <use x="661.673828" xlink:href="#DejaVuSans-76"/>
      <use x="720.853516" xlink:href="#DejaVuSans-65"/>
      <use x="782.376953" xlink:href="#DejaVuSans-64"/>
     </g>
    </g>
   </g>
   <g id="matplotlib.axis_4">
    <g id="ytick_8">
     <g id="line2d_17">
      <g>
       <use style="stroke:#000000;stroke-width:0.8;" x="610.860795" xlink:href="#m809fa11226" y="356.490443"/>
      </g>
     </g>
     <g id="text_21">
      <!-- 6 -->
      <g transform="translate(591.135795 364.08888)scale(0.2 -0.2)">
       <use xlink:href="#DejaVuSans-36"/>
      </g>
     </g>
    </g>
    <g id="ytick_9">
     <g id="line2d_18">
      <g>
       <use style="stroke:#000000;stroke-width:0.8;" x="610.860795" xlink:href="#m809fa11226" y="289.62995"/>
      </g>
     </g>
     <g id="text_22">
      <!-- 8 -->
      <g transform="translate(591.135795 297.228387)scale(0.2 -0.2)">
       <use xlink:href="#DejaVuSans-38"/>
      </g>
     </g>
    </g>
    <g id="ytick_10">
     <g id="line2d_19">
      <g>
       <use style="stroke:#000000;stroke-width:0.8;" x="610.860795" xlink:href="#m809fa11226" y="222.769457"/>
      </g>
     </g>
     <g id="text_23">
      <!-- 10 -->
      <g transform="translate(578.410795 230.367894)scale(0.2 -0.2)">
       <use xlink:href="#DejaVuSans-31"/>
       <use x="63.623047" xlink:href="#DejaVuSans-30"/>
      </g>
     </g>
    </g>
    <g id="ytick_11">
     <g id="line2d_20">
      <g>
       <use style="stroke:#000000;stroke-width:0.8;" x="610.860795" xlink:href="#m809fa11226" y="155.908964"/>
      </g>
     </g>
     <g id="text_24">
      <!-- 12 -->
      <g transform="translate(578.410795 163.507401)scale(0.2 -0.2)">
       <use xlink:href="#DejaVuSans-31"/>
       <use x="63.623047" xlink:href="#DejaVuSans-32"/>
      </g>
     </g>
    </g>
    <g id="ytick_12">
     <g id="line2d_21">
      <g>
       <use style="stroke:#000000;stroke-width:0.8;" x="610.860795" xlink:href="#m809fa11226" y="89.048471"/>
      </g>
     </g>
     <g id="text_25">
      <!-- 14 -->
      <g transform="translate(578.410795 96.646908)scale(0.2 -0.2)">
       <defs>
        <path d="M 2419 4116 
L 825 1625 
L 2419 1625 
L 2419 4116 
z
M 2253 4666 
L 3047 4666 
L 3047 1625 
L 3713 1625 
L 3713 1100 
L 3047 1100 
L 3047 0 
L 2419 0 
L 2419 1100 
L 313 1100 
L 313 1709 
L 2253 4666 
z
" id="DejaVuSans-34" transform="scale(0.015625)"/>
       </defs>
       <use xlink:href="#DejaVuSans-31"/>
       <use x="63.623047" xlink:href="#DejaVuSans-34"/>
      </g>
     </g>
    </g>
    <g id="text_26">
     <!-- Protein predicted -->
     <g transform="translate(570.25142 307.357187)rotate(-90)scale(0.2 -0.2)">
      <use xlink:href="#DejaVuSans-50"/>
      <use x="58.552734" xlink:href="#DejaVuSans-72"/>
      <use x="97.416016" xlink:href="#DejaVuSans-6f"/>
      <use x="158.597656" xlink:href="#DejaVuSans-74"/>
      <use x="197.806641" xlink:href="#DejaVuSans-65"/>
      <use x="259.330078" xlink:href="#DejaVuSans-69"/>
      <use x="287.113281" xlink:href="#DejaVuSans-6e"/>
      <use x="350.492188" xlink:href="#DejaVuSans-20"/>
      <use x="382.279297" xlink:href="#DejaVuSans-70"/>
      <use x="445.755859" xlink:href="#DejaVuSans-72"/>
      <use x="484.619141" xlink:href="#DejaVuSans-65"/>
      <use x="546.142578" xlink:href="#DejaVuSans-64"/>
      <use x="609.619141" xlink:href="#DejaVuSans-69"/>
      <use x="637.402344" xlink:href="#DejaVuSans-63"/>
      <use x="692.382812" xlink:href="#DejaVuSans-74"/>
      <use x="731.591797" xlink:href="#DejaVuSans-65"/>
      <use x="793.115234" xlink:href="#DejaVuSans-64"/>
     </g>
    </g>
   </g>
   <g id="line2d_22">
    <path clip-path="url(#pc500408c83)" d="M 610.860795 411.95625 
L 1067.40625 31.43625 
" style="fill:none;stroke:#000000;stroke-linecap:square;stroke-width:1.5;"/>
   </g>
   <g id="patch_8">
    <path d="M 610.860795 411.95625 
L 610.860795 31.43625 
" style="fill:none;stroke:#000000;stroke-linecap:square;stroke-linejoin:miter;stroke-width:0.8;"/>
   </g>
   <g id="patch_9">
    <path d="M 1067.40625 411.95625 
L 1067.40625 31.43625 
" style="fill:none;stroke:#000000;stroke-linecap:square;stroke-linejoin:miter;stroke-width:0.8;"/>
   </g>
   <g id="patch_10">
    <path d="M 610.860795 411.95625 
L 1067.40625 411.95625 
" style="fill:none;stroke:#000000;stroke-linecap:square;stroke-linejoin:miter;stroke-width:0.8;"/>
   </g>
   <g id="patch_11">
    <path d="M 610.860795 31.43625 
L 1067.40625 31.43625 
" style="fill:none;stroke:#000000;stroke-linecap:square;stroke-linejoin:miter;stroke-width:0.8;"/>
   </g>
   <g id="text_27">
    <!-- Nvar: 10  -->
    <g transform="translate(929.703946 345.129439)scale(0.2 -0.2)">
     <use xlink:href="#DejaVuSans-4e"/>
     <use x="74.804688" xlink:href="#DejaVuSans-76"/>
     <use x="133.984375" xlink:href="#DejaVuSans-61"/>
     <use x="195.263672" xlink:href="#DejaVuSans-72"/>
     <use x="234.626953" xlink:href="#DejaVuSans-3a"/>
     <use x="268.318359" xlink:href="#DejaVuSans-20"/>
     <use x="300.105469" xlink:href="#DejaVuSans-31"/>
     <use x="363.728516" xlink:href="#DejaVuSans-30"/>
     <use x="427.351562" xlink:href="#DejaVuSans-20"/>
    </g>
    <!-- RMSEP: 1.97  -->
    <g transform="translate(929.703946 367.525064)scale(0.2 -0.2)">
     <use xlink:href="#DejaVuSans-52"/>
     <use x="69.482422" xlink:href="#DejaVuSans-4d"/>
     <use x="155.761719" xlink:href="#DejaVuSans-53"/>
     <use x="219.238281" xlink:href="#DejaVuSans-45"/>
     <use x="282.421875" xlink:href="#DejaVuSans-50"/>
     <use x="342.724609" xlink:href="#DejaVuSans-3a"/>
     <use x="376.416016" xlink:href="#DejaVuSans-20"/>
     <use x="408.203125" xlink:href="#DejaVuSans-31"/>
     <use x="471.826172" xlink:href="#DejaVuSans-2e"/>
     <use x="503.613281" xlink:href="#DejaVuSans-39"/>
     <use x="567.236328" xlink:href="#DejaVuSans-37"/>
     <use x="630.859375" xlink:href="#DejaVuSans-20"/>
    </g>
    <!-- $r^2$: 0.23 -->
    <g transform="translate(929.703946 389.920689)scale(0.2 -0.2)">
     <use transform="translate(0 0.765625)" xlink:href="#DejaVuSans-Oblique-72"/>
     <use transform="translate(45.763177 39.046875)scale(0.7)" xlink:href="#DejaVuSans-32"/>
     <use transform="translate(93.033685 0.765625)" xlink:href="#DejaVuSans-3a"/>
     <use transform="translate(126.725091 0.765625)" xlink:href="#DejaVuSans-20"/>
     <use transform="translate(158.512201 0.765625)" xlink:href="#DejaVuSans-30"/>
     <use transform="translate(222.135247 0.765625)" xlink:href="#DejaVuSans-2e"/>
     <use transform="translate(248.422357 0.765625)" xlink:href="#DejaVuSans-32"/>
     <use transform="translate(312.045404 0.765625)" xlink:href="#DejaVuSans-33"/>
    </g>
   </g>
   <g id="text_28">
    <!-- Covsel applied on Rice powder -->
    <g transform="translate(654.515398 25.43625)scale(0.24 -0.24)">
     <defs>
      <path d="M 269 3500 
L 844 3500 
L 1563 769 
L 2278 3500 
L 2956 3500 
L 3675 769 
L 4391 3500 
L 4966 3500 
L 4050 0 
L 3372 0 
L 2619 2869 
L 1863 0 
L 1184 0 
L 269 3500 
z
" id="DejaVuSans-77" transform="scale(0.015625)"/>
     </defs>
     <use xlink:href="#DejaVuSans-43"/>
     <use x="69.824219" xlink:href="#DejaVuSans-6f"/>
     <use x="131.005859" xlink:href="#DejaVuSans-76"/>
     <use x="190.185547" xlink:href="#DejaVuSans-73"/>
     <use x="242.285156" xlink:href="#DejaVuSans-65"/>
     <use x="303.808594" xlink:href="#DejaVuSans-6c"/>
     <use x="331.591797" xlink:href="#DejaVuSans-20"/>
     <use x="363.378906" xlink:href="#DejaVuSans-61"/>
     <use x="424.658203" xlink:href="#DejaVuSans-70"/>
     <use x="488.134766" xlink:href="#DejaVuSans-70"/>
     <use x="551.611328" xlink:href="#DejaVuSans-6c"/>
     <use x="579.394531" xlink:href="#DejaVuSans-69"/>
     <use x="607.177734" xlink:href="#DejaVuSans-65"/>
     <use x="668.701172" xlink:href="#DejaVuSans-64"/>
     <use x="732.177734" xlink:href="#DejaVuSans-20"/>
     <use x="763.964844" xlink:href="#DejaVuSans-6f"/>
     <use x="825.146484" xlink:href="#DejaVuSans-6e"/>
     <use x="888.525391" xlink:href="#DejaVuSans-20"/>
     <use x="920.3125" xlink:href="#DejaVuSans-52"/>
     <use x="989.794922" xlink:href="#DejaVuSans-69"/>
     <use x="1017.578125" xlink:href="#DejaVuSans-63"/>
     <use x="1072.558594" xlink:href="#DejaVuSans-65"/>
     <use x="1134.082031" xlink:href="#DejaVuSans-20"/>
     <use x="1165.869141" xlink:href="#DejaVuSans-70"/>
     <use x="1229.345703" xlink:href="#DejaVuSans-6f"/>
     <use x="1290.527344" xlink:href="#DejaVuSans-77"/>
     <use x="1372.314453" xlink:href="#DejaVuSans-64"/>
     <use x="1435.791016" xlink:href="#DejaVuSans-65"/>
     <use x="1497.314453" xlink:href="#DejaVuSans-72"/>
    </g>
   </g>
  </g>
 </g>
 <defs>
  <clipPath id="p1a32eeedee">
   <rect height="380.52" width="456.545455" x="63.00625" y="31.43625"/>
  </clipPath>
  <clipPath id="pc500408c83">
   <rect height="380.52" width="456.545455" x="610.860795" y="31.43625"/>
  </clipPath>
 </defs>
</svg>
